%YAML 1.1
%TAG !u! tag:unity3d.com,2011:
--- !u!1 &3247183556036981219
GameObject:
  m_ObjectHideFlags: 0
  m_CorrespondingSourceObject: {fileID: 0}
  m_PrefabInstance: {fileID: 0}
  m_PrefabAsset: {fileID: 0}
  serializedVersion: 6
  m_Component:
  - component: {fileID: 3002286436002847718}
  - component: {fileID: 8958354681205228446}
  - component: {fileID: 8862871555105716586}
  m_Layer: 0
  m_Name: Layer1
  m_TagString: Untagged
  m_Icon: {fileID: 0}
  m_NavMeshLayer: 0
  m_StaticEditorFlags: 0
  m_IsActive: 1
--- !u!4 &3002286436002847718
Transform:
  m_ObjectHideFlags: 0
  m_CorrespondingSourceObject: {fileID: 0}
  m_PrefabInstance: {fileID: 0}
  m_PrefabAsset: {fileID: 0}
  m_GameObject: {fileID: 3247183556036981219}
  m_LocalRotation: {x: -0, y: -0, z: -0, w: 1}
  m_LocalPosition: {x: 0, y: 0, z: 0}
  m_LocalScale: {x: 1, y: 1, z: 1}
  m_Children: []
  m_Father: {fileID: 2403139139689847053}
  m_RootOrder: 0
  m_LocalEulerAnglesHint: {x: 0, y: 0, z: 0}
--- !u!1839735485 &8958354681205228446
Tilemap:
  m_ObjectHideFlags: 0
  m_CorrespondingSourceObject: {fileID: 0}
  m_PrefabInstance: {fileID: 0}
  m_PrefabAsset: {fileID: 0}
  m_GameObject: {fileID: 3247183556036981219}
  m_Enabled: 1
  m_Tiles:
  - first: {x: -1, y: -16, z: 0}
    second:
      serializedVersion: 2
      m_TileIndex: 64
      m_TileSpriteIndex: 64
      m_TileMatrixIndex: 0
      m_TileColorIndex: 0
      m_TileObjectToInstantiateIndex: 65535
      dummyAlignment: 0
      m_AllTileFlags: 1073741825
  - first: {x: 0, y: -16, z: 0}
    second:
      serializedVersion: 2
      m_TileIndex: 65
      m_TileSpriteIndex: 65
      m_TileMatrixIndex: 0
      m_TileColorIndex: 0
      m_TileObjectToInstantiateIndex: 65535
      dummyAlignment: 0
      m_AllTileFlags: 1073741825
  - first: {x: 1, y: -16, z: 0}
    second:
      serializedVersion: 2
      m_TileIndex: 66
      m_TileSpriteIndex: 66
      m_TileMatrixIndex: 0
      m_TileColorIndex: 0
      m_TileObjectToInstantiateIndex: 65535
      dummyAlignment: 0
      m_AllTileFlags: 1073741825
  - first: {x: -1, y: -15, z: 0}
    second:
      serializedVersion: 2
      m_TileIndex: 60
      m_TileSpriteIndex: 60
      m_TileMatrixIndex: 0
      m_TileColorIndex: 0
      m_TileObjectToInstantiateIndex: 65535
      dummyAlignment: 0
      m_AllTileFlags: 1073741825
  - first: {x: 0, y: -15, z: 0}
    second:
      serializedVersion: 2
      m_TileIndex: 61
      m_TileSpriteIndex: 61
      m_TileMatrixIndex: 0
      m_TileColorIndex: 0
      m_TileObjectToInstantiateIndex: 65535
      dummyAlignment: 0
      m_AllTileFlags: 1073741825
  - first: {x: 1, y: -15, z: 0}
    second:
      serializedVersion: 2
      m_TileIndex: 62
      m_TileSpriteIndex: 62
      m_TileMatrixIndex: 0
      m_TileColorIndex: 0
      m_TileObjectToInstantiateIndex: 65535
      dummyAlignment: 0
      m_AllTileFlags: 1073741825
  - first: {x: 2, y: -15, z: 0}
    second:
      serializedVersion: 2
      m_TileIndex: 63
      m_TileSpriteIndex: 63
      m_TileMatrixIndex: 0
      m_TileColorIndex: 0
      m_TileObjectToInstantiateIndex: 65535
      dummyAlignment: 0
      m_AllTileFlags: 1073741825
  - first: {x: -1, y: -14, z: 0}
    second:
      serializedVersion: 2
      m_TileIndex: 56
      m_TileSpriteIndex: 56
      m_TileMatrixIndex: 0
      m_TileColorIndex: 0
      m_TileObjectToInstantiateIndex: 65535
      dummyAlignment: 0
      m_AllTileFlags: 1073741825
  - first: {x: 0, y: -14, z: 0}
    second:
      serializedVersion: 2
      m_TileIndex: 57
      m_TileSpriteIndex: 57
      m_TileMatrixIndex: 0
      m_TileColorIndex: 0
      m_TileObjectToInstantiateIndex: 65535
      dummyAlignment: 0
      m_AllTileFlags: 1073741825
  - first: {x: 1, y: -14, z: 0}
    second:
      serializedVersion: 2
      m_TileIndex: 58
      m_TileSpriteIndex: 58
      m_TileMatrixIndex: 0
      m_TileColorIndex: 0
      m_TileObjectToInstantiateIndex: 65535
      dummyAlignment: 0
      m_AllTileFlags: 1073741825
  - first: {x: 2, y: -14, z: 0}
    second:
      serializedVersion: 2
      m_TileIndex: 59
      m_TileSpriteIndex: 59
      m_TileMatrixIndex: 0
      m_TileColorIndex: 0
      m_TileObjectToInstantiateIndex: 65535
      dummyAlignment: 0
      m_AllTileFlags: 1073741825
  - first: {x: -1, y: -13, z: 0}
    second:
      serializedVersion: 2
      m_TileIndex: 52
      m_TileSpriteIndex: 52
      m_TileMatrixIndex: 0
      m_TileColorIndex: 0
      m_TileObjectToInstantiateIndex: 65535
      dummyAlignment: 0
      m_AllTileFlags: 1073741825
  - first: {x: 0, y: -13, z: 0}
    second:
      serializedVersion: 2
      m_TileIndex: 53
      m_TileSpriteIndex: 53
      m_TileMatrixIndex: 0
      m_TileColorIndex: 0
      m_TileObjectToInstantiateIndex: 65535
      dummyAlignment: 0
      m_AllTileFlags: 1073741825
  - first: {x: 1, y: -13, z: 0}
    second:
      serializedVersion: 2
      m_TileIndex: 54
      m_TileSpriteIndex: 54
      m_TileMatrixIndex: 0
      m_TileColorIndex: 0
      m_TileObjectToInstantiateIndex: 65535
      dummyAlignment: 0
      m_AllTileFlags: 1073741825
  - first: {x: 2, y: -13, z: 0}
    second:
      serializedVersion: 2
      m_TileIndex: 55
      m_TileSpriteIndex: 55
      m_TileMatrixIndex: 0
      m_TileColorIndex: 0
      m_TileObjectToInstantiateIndex: 65535
      dummyAlignment: 0
      m_AllTileFlags: 1073741825
  - first: {x: -1, y: -12, z: 0}
    second:
      serializedVersion: 2
      m_TileIndex: 48
      m_TileSpriteIndex: 48
      m_TileMatrixIndex: 0
      m_TileColorIndex: 0
      m_TileObjectToInstantiateIndex: 65535
      dummyAlignment: 0
      m_AllTileFlags: 1073741825
  - first: {x: 0, y: -12, z: 0}
    second:
      serializedVersion: 2
      m_TileIndex: 49
      m_TileSpriteIndex: 49
      m_TileMatrixIndex: 0
      m_TileColorIndex: 0
      m_TileObjectToInstantiateIndex: 65535
      dummyAlignment: 0
      m_AllTileFlags: 1073741825
  - first: {x: 1, y: -12, z: 0}
    second:
      serializedVersion: 2
      m_TileIndex: 50
      m_TileSpriteIndex: 50
      m_TileMatrixIndex: 0
      m_TileColorIndex: 0
      m_TileObjectToInstantiateIndex: 65535
      dummyAlignment: 0
      m_AllTileFlags: 1073741825
  - first: {x: 2, y: -12, z: 0}
    second:
      serializedVersion: 2
      m_TileIndex: 51
      m_TileSpriteIndex: 51
      m_TileMatrixIndex: 0
      m_TileColorIndex: 0
      m_TileObjectToInstantiateIndex: 65535
      dummyAlignment: 0
      m_AllTileFlags: 1073741825
  - first: {x: -1, y: -11, z: 0}
    second:
      serializedVersion: 2
      m_TileIndex: 44
      m_TileSpriteIndex: 44
      m_TileMatrixIndex: 0
      m_TileColorIndex: 0
      m_TileObjectToInstantiateIndex: 65535
      dummyAlignment: 0
      m_AllTileFlags: 1073741825
  - first: {x: 0, y: -11, z: 0}
    second:
      serializedVersion: 2
      m_TileIndex: 45
      m_TileSpriteIndex: 45
      m_TileMatrixIndex: 0
      m_TileColorIndex: 0
      m_TileObjectToInstantiateIndex: 65535
      dummyAlignment: 0
      m_AllTileFlags: 1073741825
  - first: {x: 1, y: -11, z: 0}
    second:
      serializedVersion: 2
      m_TileIndex: 46
      m_TileSpriteIndex: 46
      m_TileMatrixIndex: 0
      m_TileColorIndex: 0
      m_TileObjectToInstantiateIndex: 65535
      dummyAlignment: 0
      m_AllTileFlags: 1073741825
  - first: {x: 2, y: -11, z: 0}
    second:
      serializedVersion: 2
      m_TileIndex: 47
      m_TileSpriteIndex: 47
      m_TileMatrixIndex: 0
      m_TileColorIndex: 0
      m_TileObjectToInstantiateIndex: 65535
      dummyAlignment: 0
      m_AllTileFlags: 1073741825
  - first: {x: -1, y: -10, z: 0}
    second:
      serializedVersion: 2
      m_TileIndex: 40
      m_TileSpriteIndex: 40
      m_TileMatrixIndex: 0
      m_TileColorIndex: 0
      m_TileObjectToInstantiateIndex: 65535
      dummyAlignment: 0
      m_AllTileFlags: 1073741825
  - first: {x: 0, y: -10, z: 0}
    second:
      serializedVersion: 2
      m_TileIndex: 41
      m_TileSpriteIndex: 41
      m_TileMatrixIndex: 0
      m_TileColorIndex: 0
      m_TileObjectToInstantiateIndex: 65535
      dummyAlignment: 0
      m_AllTileFlags: 1073741825
  - first: {x: 1, y: -10, z: 0}
    second:
      serializedVersion: 2
      m_TileIndex: 42
      m_TileSpriteIndex: 42
      m_TileMatrixIndex: 0
      m_TileColorIndex: 0
      m_TileObjectToInstantiateIndex: 65535
      dummyAlignment: 0
      m_AllTileFlags: 1073741825
  - first: {x: 2, y: -10, z: 0}
    second:
      serializedVersion: 2
      m_TileIndex: 43
      m_TileSpriteIndex: 43
      m_TileMatrixIndex: 0
      m_TileColorIndex: 0
      m_TileObjectToInstantiateIndex: 65535
      dummyAlignment: 0
      m_AllTileFlags: 1073741825
  - first: {x: -1, y: -9, z: 0}
    second:
      serializedVersion: 2
      m_TileIndex: 36
      m_TileSpriteIndex: 36
      m_TileMatrixIndex: 0
      m_TileColorIndex: 0
      m_TileObjectToInstantiateIndex: 65535
      dummyAlignment: 0
      m_AllTileFlags: 1073741825
  - first: {x: 0, y: -9, z: 0}
    second:
      serializedVersion: 2
      m_TileIndex: 37
      m_TileSpriteIndex: 37
      m_TileMatrixIndex: 0
      m_TileColorIndex: 0
      m_TileObjectToInstantiateIndex: 65535
      dummyAlignment: 0
      m_AllTileFlags: 1073741825
  - first: {x: 1, y: -9, z: 0}
    second:
      serializedVersion: 2
      m_TileIndex: 38
      m_TileSpriteIndex: 38
      m_TileMatrixIndex: 0
      m_TileColorIndex: 0
      m_TileObjectToInstantiateIndex: 65535
      dummyAlignment: 0
      m_AllTileFlags: 1073741825
  - first: {x: 2, y: -9, z: 0}
    second:
      serializedVersion: 2
      m_TileIndex: 39
      m_TileSpriteIndex: 39
      m_TileMatrixIndex: 0
      m_TileColorIndex: 0
      m_TileObjectToInstantiateIndex: 65535
      dummyAlignment: 0
      m_AllTileFlags: 1073741825
  - first: {x: -1, y: -8, z: 0}
    second:
      serializedVersion: 2
      m_TileIndex: 32
      m_TileSpriteIndex: 32
      m_TileMatrixIndex: 0
      m_TileColorIndex: 0
      m_TileObjectToInstantiateIndex: 65535
      dummyAlignment: 0
      m_AllTileFlags: 1073741825
  - first: {x: 0, y: -8, z: 0}
    second:
      serializedVersion: 2
      m_TileIndex: 33
      m_TileSpriteIndex: 33
      m_TileMatrixIndex: 0
      m_TileColorIndex: 0
      m_TileObjectToInstantiateIndex: 65535
      dummyAlignment: 0
      m_AllTileFlags: 1073741825
  - first: {x: 1, y: -8, z: 0}
    second:
      serializedVersion: 2
      m_TileIndex: 34
      m_TileSpriteIndex: 34
      m_TileMatrixIndex: 0
      m_TileColorIndex: 0
      m_TileObjectToInstantiateIndex: 65535
      dummyAlignment: 0
      m_AllTileFlags: 1073741825
  - first: {x: 2, y: -8, z: 0}
    second:
      serializedVersion: 2
      m_TileIndex: 35
      m_TileSpriteIndex: 35
      m_TileMatrixIndex: 0
      m_TileColorIndex: 0
      m_TileObjectToInstantiateIndex: 65535
      dummyAlignment: 0
      m_AllTileFlags: 1073741825
  - first: {x: -1, y: -7, z: 0}
    second:
      serializedVersion: 2
      m_TileIndex: 28
      m_TileSpriteIndex: 28
      m_TileMatrixIndex: 0
      m_TileColorIndex: 0
      m_TileObjectToInstantiateIndex: 65535
      dummyAlignment: 0
      m_AllTileFlags: 1073741825
  - first: {x: 0, y: -7, z: 0}
    second:
      serializedVersion: 2
      m_TileIndex: 29
      m_TileSpriteIndex: 29
      m_TileMatrixIndex: 0
      m_TileColorIndex: 0
      m_TileObjectToInstantiateIndex: 65535
      dummyAlignment: 0
      m_AllTileFlags: 1073741825
  - first: {x: 1, y: -7, z: 0}
    second:
      serializedVersion: 2
      m_TileIndex: 30
      m_TileSpriteIndex: 30
      m_TileMatrixIndex: 0
      m_TileColorIndex: 0
      m_TileObjectToInstantiateIndex: 65535
      dummyAlignment: 0
      m_AllTileFlags: 1073741825
  - first: {x: 2, y: -7, z: 0}
    second:
      serializedVersion: 2
      m_TileIndex: 31
      m_TileSpriteIndex: 31
      m_TileMatrixIndex: 0
      m_TileColorIndex: 0
      m_TileObjectToInstantiateIndex: 65535
      dummyAlignment: 0
      m_AllTileFlags: 1073741825
  - first: {x: -1, y: -6, z: 0}
    second:
      serializedVersion: 2
      m_TileIndex: 24
      m_TileSpriteIndex: 24
      m_TileMatrixIndex: 0
      m_TileColorIndex: 0
      m_TileObjectToInstantiateIndex: 65535
      dummyAlignment: 0
      m_AllTileFlags: 1073741825
  - first: {x: 0, y: -6, z: 0}
    second:
      serializedVersion: 2
      m_TileIndex: 25
      m_TileSpriteIndex: 25
      m_TileMatrixIndex: 0
      m_TileColorIndex: 0
      m_TileObjectToInstantiateIndex: 65535
      dummyAlignment: 0
      m_AllTileFlags: 1073741825
  - first: {x: 1, y: -6, z: 0}
    second:
      serializedVersion: 2
      m_TileIndex: 26
      m_TileSpriteIndex: 26
      m_TileMatrixIndex: 0
      m_TileColorIndex: 0
      m_TileObjectToInstantiateIndex: 65535
      dummyAlignment: 0
      m_AllTileFlags: 1073741825
  - first: {x: 2, y: -6, z: 0}
    second:
      serializedVersion: 2
      m_TileIndex: 27
      m_TileSpriteIndex: 27
      m_TileMatrixIndex: 0
      m_TileColorIndex: 0
      m_TileObjectToInstantiateIndex: 65535
      dummyAlignment: 0
      m_AllTileFlags: 1073741825
  - first: {x: -1, y: -5, z: 0}
    second:
      serializedVersion: 2
      m_TileIndex: 20
      m_TileSpriteIndex: 20
      m_TileMatrixIndex: 0
      m_TileColorIndex: 0
      m_TileObjectToInstantiateIndex: 65535
      dummyAlignment: 0
      m_AllTileFlags: 1073741825
  - first: {x: 0, y: -5, z: 0}
    second:
      serializedVersion: 2
      m_TileIndex: 21
      m_TileSpriteIndex: 21
      m_TileMatrixIndex: 0
      m_TileColorIndex: 0
      m_TileObjectToInstantiateIndex: 65535
      dummyAlignment: 0
      m_AllTileFlags: 1073741825
  - first: {x: 1, y: -5, z: 0}
    second:
      serializedVersion: 2
      m_TileIndex: 22
      m_TileSpriteIndex: 22
      m_TileMatrixIndex: 0
      m_TileColorIndex: 0
      m_TileObjectToInstantiateIndex: 65535
      dummyAlignment: 0
      m_AllTileFlags: 1073741825
  - first: {x: 2, y: -5, z: 0}
    second:
      serializedVersion: 2
      m_TileIndex: 23
      m_TileSpriteIndex: 23
      m_TileMatrixIndex: 0
      m_TileColorIndex: 0
      m_TileObjectToInstantiateIndex: 65535
      dummyAlignment: 0
      m_AllTileFlags: 1073741825
  - first: {x: -1, y: -4, z: 0}
    second:
      serializedVersion: 2
      m_TileIndex: 16
      m_TileSpriteIndex: 16
      m_TileMatrixIndex: 0
      m_TileColorIndex: 0
      m_TileObjectToInstantiateIndex: 65535
      dummyAlignment: 0
      m_AllTileFlags: 1073741825
  - first: {x: 0, y: -4, z: 0}
    second:
      serializedVersion: 2
      m_TileIndex: 17
      m_TileSpriteIndex: 17
      m_TileMatrixIndex: 0
      m_TileColorIndex: 0
      m_TileObjectToInstantiateIndex: 65535
      dummyAlignment: 0
      m_AllTileFlags: 1073741825
  - first: {x: 1, y: -4, z: 0}
    second:
      serializedVersion: 2
      m_TileIndex: 18
      m_TileSpriteIndex: 18
      m_TileMatrixIndex: 0
      m_TileColorIndex: 0
      m_TileObjectToInstantiateIndex: 65535
      dummyAlignment: 0
      m_AllTileFlags: 1073741825
  - first: {x: 2, y: -4, z: 0}
    second:
      serializedVersion: 2
      m_TileIndex: 19
      m_TileSpriteIndex: 19
      m_TileMatrixIndex: 0
      m_TileColorIndex: 0
      m_TileObjectToInstantiateIndex: 65535
      dummyAlignment: 0
      m_AllTileFlags: 1073741825
  - first: {x: -1, y: -3, z: 0}
    second:
      serializedVersion: 2
      m_TileIndex: 12
      m_TileSpriteIndex: 12
      m_TileMatrixIndex: 0
      m_TileColorIndex: 0
      m_TileObjectToInstantiateIndex: 65535
      dummyAlignment: 0
      m_AllTileFlags: 1073741825
  - first: {x: 0, y: -3, z: 0}
    second:
      serializedVersion: 2
      m_TileIndex: 13
      m_TileSpriteIndex: 13
      m_TileMatrixIndex: 0
      m_TileColorIndex: 0
      m_TileObjectToInstantiateIndex: 65535
      dummyAlignment: 0
      m_AllTileFlags: 1073741825
  - first: {x: 1, y: -3, z: 0}
    second:
      serializedVersion: 2
      m_TileIndex: 14
      m_TileSpriteIndex: 14
      m_TileMatrixIndex: 0
      m_TileColorIndex: 0
      m_TileObjectToInstantiateIndex: 65535
      dummyAlignment: 0
      m_AllTileFlags: 1073741825
  - first: {x: 2, y: -3, z: 0}
    second:
      serializedVersion: 2
      m_TileIndex: 15
      m_TileSpriteIndex: 15
      m_TileMatrixIndex: 0
      m_TileColorIndex: 0
      m_TileObjectToInstantiateIndex: 65535
      dummyAlignment: 0
      m_AllTileFlags: 1073741825
  - first: {x: -1, y: -2, z: 0}
    second:
      serializedVersion: 2
      m_TileIndex: 8
      m_TileSpriteIndex: 8
      m_TileMatrixIndex: 0
      m_TileColorIndex: 0
      m_TileObjectToInstantiateIndex: 65535
      dummyAlignment: 0
      m_AllTileFlags: 1073741825
  - first: {x: 0, y: -2, z: 0}
    second:
      serializedVersion: 2
      m_TileIndex: 9
      m_TileSpriteIndex: 9
      m_TileMatrixIndex: 0
      m_TileColorIndex: 0
      m_TileObjectToInstantiateIndex: 65535
      dummyAlignment: 0
      m_AllTileFlags: 1073741825
  - first: {x: 1, y: -2, z: 0}
    second:
      serializedVersion: 2
      m_TileIndex: 10
      m_TileSpriteIndex: 10
      m_TileMatrixIndex: 0
      m_TileColorIndex: 0
      m_TileObjectToInstantiateIndex: 65535
      dummyAlignment: 0
      m_AllTileFlags: 1073741825
  - first: {x: 2, y: -2, z: 0}
    second:
      serializedVersion: 2
      m_TileIndex: 11
      m_TileSpriteIndex: 11
      m_TileMatrixIndex: 0
      m_TileColorIndex: 0
      m_TileObjectToInstantiateIndex: 65535
      dummyAlignment: 0
      m_AllTileFlags: 1073741825
  - first: {x: -1, y: -1, z: 0}
    second:
      serializedVersion: 2
      m_TileIndex: 4
      m_TileSpriteIndex: 4
      m_TileMatrixIndex: 0
      m_TileColorIndex: 0
      m_TileObjectToInstantiateIndex: 65535
      dummyAlignment: 0
      m_AllTileFlags: 1073741825
  - first: {x: 0, y: -1, z: 0}
    second:
      serializedVersion: 2
      m_TileIndex: 5
      m_TileSpriteIndex: 5
      m_TileMatrixIndex: 0
      m_TileColorIndex: 0
      m_TileObjectToInstantiateIndex: 65535
      dummyAlignment: 0
      m_AllTileFlags: 1073741825
  - first: {x: 1, y: -1, z: 0}
    second:
      serializedVersion: 2
      m_TileIndex: 6
      m_TileSpriteIndex: 6
      m_TileMatrixIndex: 0
      m_TileColorIndex: 0
      m_TileObjectToInstantiateIndex: 65535
      dummyAlignment: 0
      m_AllTileFlags: 1073741825
  - first: {x: 2, y: -1, z: 0}
    second:
      serializedVersion: 2
      m_TileIndex: 7
      m_TileSpriteIndex: 7
      m_TileMatrixIndex: 0
      m_TileColorIndex: 0
      m_TileObjectToInstantiateIndex: 65535
      dummyAlignment: 0
      m_AllTileFlags: 1073741825
  - first: {x: -1, y: 0, z: 0}
    second:
      serializedVersion: 2
      m_TileIndex: 0
      m_TileSpriteIndex: 0
      m_TileMatrixIndex: 0
      m_TileColorIndex: 0
      m_TileObjectToInstantiateIndex: 65535
      dummyAlignment: 0
      m_AllTileFlags: 1073741825
  - first: {x: 0, y: 0, z: 0}
    second:
      serializedVersion: 2
      m_TileIndex: 1
      m_TileSpriteIndex: 1
      m_TileMatrixIndex: 0
      m_TileColorIndex: 0
      m_TileObjectToInstantiateIndex: 65535
      dummyAlignment: 0
      m_AllTileFlags: 1073741825
  - first: {x: 1, y: 0, z: 0}
    second:
      serializedVersion: 2
      m_TileIndex: 2
      m_TileSpriteIndex: 2
      m_TileMatrixIndex: 0
      m_TileColorIndex: 0
      m_TileObjectToInstantiateIndex: 65535
      dummyAlignment: 0
      m_AllTileFlags: 1073741825
  - first: {x: 2, y: 0, z: 0}
    second:
      serializedVersion: 2
      m_TileIndex: 3
      m_TileSpriteIndex: 3
      m_TileMatrixIndex: 0
      m_TileColorIndex: 0
      m_TileObjectToInstantiateIndex: 65535
      dummyAlignment: 0
      m_AllTileFlags: 1073741825
  m_AnimatedTiles: {}
  m_TileAssetArray:
  - m_RefCount: 1
    m_Data: {fileID: 11400000, guid: 5f465cf5722960c45a36c38c83ef8c3e, type: 2}
  - m_RefCount: 1
    m_Data: {fileID: 11400000, guid: 6eb085e16f5bfe148a4e9bc3a49fbb12, type: 2}
  - m_RefCount: 1
    m_Data: {fileID: 11400000, guid: 75f8bfbd1a5d9ad41b911f89c403105b, type: 2}
  - m_RefCount: 1
    m_Data: {fileID: 11400000, guid: b3f52d6279ed75748ad7205db2ab3074, type: 2}
  - m_RefCount: 1
    m_Data: {fileID: 11400000, guid: 2aa8707757d53304a9693cb7da9f1e45, type: 2}
  - m_RefCount: 1
    m_Data: {fileID: 11400000, guid: a22d4c71f61e5064aad5135c87306011, type: 2}
  - m_RefCount: 1
    m_Data: {fileID: 11400000, guid: 9b9c7bcfd19673746bdcd370972c2788, type: 2}
  - m_RefCount: 1
    m_Data: {fileID: 11400000, guid: 734c2f566012169499068731d5b1471e, type: 2}
  - m_RefCount: 1
    m_Data: {fileID: 11400000, guid: 3e115b58fd268e045b5031a2c5fd37e1, type: 2}
  - m_RefCount: 1
    m_Data: {fileID: 11400000, guid: eeac570dc193ccb4da9071b6c1b73ece, type: 2}
  - m_RefCount: 1
    m_Data: {fileID: 11400000, guid: 8f90335e351bc044dac517df0e776401, type: 2}
  - m_RefCount: 1
    m_Data: {fileID: 11400000, guid: c17e8c0e7f6147149b97afa7238855d9, type: 2}
  - m_RefCount: 1
    m_Data: {fileID: 11400000, guid: 447b1050a317d484da73458905e8625c, type: 2}
  - m_RefCount: 1
    m_Data: {fileID: 11400000, guid: 143e1ed3b14af2848ba636cd6e2d7c11, type: 2}
  - m_RefCount: 1
    m_Data: {fileID: 11400000, guid: 224fafefad3674b4dbfcd249b99c1230, type: 2}
  - m_RefCount: 1
    m_Data: {fileID: 11400000, guid: fa67cd01f9d325a4093fb76dcffc810f, type: 2}
  - m_RefCount: 1
    m_Data: {fileID: 11400000, guid: 536b064e22122c74f8a52dca2d1c9d38, type: 2}
  - m_RefCount: 1
    m_Data: {fileID: 11400000, guid: 62241349546beeb4098838b19c8f3caa, type: 2}
  - m_RefCount: 1
    m_Data: {fileID: 11400000, guid: 9af4576a296b8174897a907b835f614a, type: 2}
  - m_RefCount: 1
    m_Data: {fileID: 11400000, guid: 3c8ef28f818ca784cb20307ddc67bc6b, type: 2}
  - m_RefCount: 1
    m_Data: {fileID: 11400000, guid: 90069e7bcf4969346ab475b504d4d66d, type: 2}
  - m_RefCount: 1
    m_Data: {fileID: 11400000, guid: 70da9a2f502e145489e9a18bc07e7e74, type: 2}
  - m_RefCount: 1
    m_Data: {fileID: 11400000, guid: 4e7cee02db05ce641b0d63a58a8fc4c7, type: 2}
  - m_RefCount: 1
    m_Data: {fileID: 11400000, guid: 09817b0914b990f4fb0d16fb8d99d4da, type: 2}
  - m_RefCount: 1
    m_Data: {fileID: 11400000, guid: 17e4872b0e6896d41b3a20bb982ee46e, type: 2}
  - m_RefCount: 1
    m_Data: {fileID: 11400000, guid: debf7058bf8160b45a0492ad78118f6a, type: 2}
  - m_RefCount: 1
    m_Data: {fileID: 11400000, guid: e746666d673f42c438ed804cff9d46a8, type: 2}
  - m_RefCount: 1
    m_Data: {fileID: 11400000, guid: 1dcb756a9bcc23846a279cbc0f434324, type: 2}
  - m_RefCount: 1
    m_Data: {fileID: 11400000, guid: fd4c514d7fcf9a141acd46c9db418ee1, type: 2}
  - m_RefCount: 1
    m_Data: {fileID: 11400000, guid: d763186cd6c0fe44cb12a80459fbbfcf, type: 2}
  - m_RefCount: 1
    m_Data: {fileID: 11400000, guid: 930d8f8568b459142b6b8d3589c2bfeb, type: 2}
  - m_RefCount: 1
    m_Data: {fileID: 11400000, guid: 2eda71db1e65ca4448564c618a6592db, type: 2}
  - m_RefCount: 1
    m_Data: {fileID: 11400000, guid: f6e1546018ec96b49b4c7a056a2e8d29, type: 2}
  - m_RefCount: 1
    m_Data: {fileID: 11400000, guid: b45009fbd6fc27342ae43855e81a1522, type: 2}
  - m_RefCount: 1
    m_Data: {fileID: 11400000, guid: 973309903900d6c4eb5e20c6da79e69c, type: 2}
  - m_RefCount: 1
    m_Data: {fileID: 11400000, guid: 84714d6fec20bd842b012f02217c9ef7, type: 2}
  - m_RefCount: 1
    m_Data: {fileID: 11400000, guid: 765ec545dc740ee4ba6cc11ba5b5078b, type: 2}
  - m_RefCount: 1
    m_Data: {fileID: 11400000, guid: 2e187a4159c11c14a88f564a8319dbd2, type: 2}
  - m_RefCount: 1
    m_Data: {fileID: 11400000, guid: a8b3e721f74db3c47a9e2ccf6d0834af, type: 2}
  - m_RefCount: 1
    m_Data: {fileID: 11400000, guid: fb25bde316c0b0441bf84ec83be5c178, type: 2}
  - m_RefCount: 1
    m_Data: {fileID: 11400000, guid: 90e73f9d68b9edf4daeee0ee1ee25223, type: 2}
  - m_RefCount: 1
    m_Data: {fileID: 11400000, guid: 97e3d59fb40d8094c8459bef3bb86bb0, type: 2}
  - m_RefCount: 1
    m_Data: {fileID: 11400000, guid: 1bcfa8e143c800d4b8acbd7e500fdfc3, type: 2}
  - m_RefCount: 1
    m_Data: {fileID: 11400000, guid: 3284274f30c41a044866737b6b67c20d, type: 2}
  - m_RefCount: 1
    m_Data: {fileID: 11400000, guid: 578751ed413e11647aa282e15d6c4662, type: 2}
  - m_RefCount: 1
    m_Data: {fileID: 11400000, guid: ab7368ff9da7b044e9d5981ada55febb, type: 2}
  - m_RefCount: 1
    m_Data: {fileID: 11400000, guid: ec6fb0e68df7b3540a23570036b357e2, type: 2}
  - m_RefCount: 1
    m_Data: {fileID: 11400000, guid: 8ad5599d9b7a39e47bb44b953cef045a, type: 2}
  - m_RefCount: 1
    m_Data: {fileID: 11400000, guid: 12f58da79f638b6449b744b6aa27b7a1, type: 2}
  - m_RefCount: 1
    m_Data: {fileID: 11400000, guid: a7d202f62e445e7499526f69df1fe3cb, type: 2}
  - m_RefCount: 1
    m_Data: {fileID: 11400000, guid: b4510de4b8033c8499b53cae13adeb55, type: 2}
  - m_RefCount: 1
    m_Data: {fileID: 11400000, guid: 83d670756e9c5cf4aa7bd22bf9c56632, type: 2}
  - m_RefCount: 1
    m_Data: {fileID: 11400000, guid: f90f6a763d4f22b4db3e5111107c62f5, type: 2}
  - m_RefCount: 1
    m_Data: {fileID: 11400000, guid: 5ae2a74d30661664ca8949057afcdfbc, type: 2}
  - m_RefCount: 1
    m_Data: {fileID: 11400000, guid: f19ed921e898b53469cc174ef51f629f, type: 2}
  - m_RefCount: 1
    m_Data: {fileID: 11400000, guid: 09d46d647a0cfa3448df5a4084f1b35c, type: 2}
  - m_RefCount: 1
    m_Data: {fileID: 11400000, guid: 1b02b71e60e7df14b90c51f129a03b81, type: 2}
  - m_RefCount: 1
    m_Data: {fileID: 11400000, guid: 90ae08f43a97ef149bfa4917b86d5eb3, type: 2}
  - m_RefCount: 1
    m_Data: {fileID: 11400000, guid: 7535eb053a84d364bbd3de30a52db36a, type: 2}
  - m_RefCount: 1
    m_Data: {fileID: 11400000, guid: 797ffa81241e31740afdbc3de495d0db, type: 2}
  - m_RefCount: 1
    m_Data: {fileID: 11400000, guid: 0e438ad9b4671c3488c0f3757d70767b, type: 2}
  - m_RefCount: 1
    m_Data: {fileID: 11400000, guid: b9c73d501ee133a4e8cbba14137a4713, type: 2}
  - m_RefCount: 1
    m_Data: {fileID: 11400000, guid: ed8bc1a0272cb584b8f4ce1ee19f8a87, type: 2}
  - m_RefCount: 1
    m_Data: {fileID: 11400000, guid: be481883db8f27d42b2c2b183c5be194, type: 2}
  - m_RefCount: 1
    m_Data: {fileID: 11400000, guid: dd9a3055396313e458c288ba8069aa53, type: 2}
  - m_RefCount: 1
    m_Data: {fileID: 11400000, guid: 55833c177e42a0a4cb5e041e804b448f, type: 2}
  - m_RefCount: 1
    m_Data: {fileID: 11400000, guid: 9d5f04bdf600e9e4498e9dcdad889231, type: 2}
  m_TileSpriteArray:
  - m_RefCount: 1
    m_Data: {fileID: -1469218451611563618, guid: 5deb7a96e817d4047bc69de41f55edda, type: 3}
  - m_RefCount: 1
    m_Data: {fileID: 8160993007472954915, guid: 5deb7a96e817d4047bc69de41f55edda, type: 3}
  - m_RefCount: 1
    m_Data: {fileID: -4012365195093468763, guid: 5deb7a96e817d4047bc69de41f55edda, type: 3}
  - m_RefCount: 1
    m_Data: {fileID: 1578373298668495159, guid: 5deb7a96e817d4047bc69de41f55edda, type: 3}
  - m_RefCount: 1
    m_Data: {fileID: -5419846219481764144, guid: 5deb7a96e817d4047bc69de41f55edda, type: 3}
  - m_RefCount: 1
    m_Data: {fileID: 1529022958494070852, guid: 5deb7a96e817d4047bc69de41f55edda, type: 3}
  - m_RefCount: 1
    m_Data: {fileID: 1877316347992320846, guid: 5deb7a96e817d4047bc69de41f55edda, type: 3}
  - m_RefCount: 1
    m_Data: {fileID: 6913041470398312625, guid: 5deb7a96e817d4047bc69de41f55edda, type: 3}
  - m_RefCount: 1
    m_Data: {fileID: 5421814505155427615, guid: 5deb7a96e817d4047bc69de41f55edda, type: 3}
  - m_RefCount: 1
    m_Data: {fileID: 3666704792543602465, guid: 5deb7a96e817d4047bc69de41f55edda, type: 3}
  - m_RefCount: 1
    m_Data: {fileID: -1466105852960486847, guid: 5deb7a96e817d4047bc69de41f55edda, type: 3}
  - m_RefCount: 1
    m_Data: {fileID: 246112155071015100, guid: 5deb7a96e817d4047bc69de41f55edda, type: 3}
  - m_RefCount: 1
    m_Data: {fileID: -1484604666971632947, guid: 5deb7a96e817d4047bc69de41f55edda, type: 3}
  - m_RefCount: 1
    m_Data: {fileID: 3500845553275724637, guid: 5deb7a96e817d4047bc69de41f55edda, type: 3}
  - m_RefCount: 1
    m_Data: {fileID: 6281062045660737406, guid: 5deb7a96e817d4047bc69de41f55edda, type: 3}
  - m_RefCount: 1
    m_Data: {fileID: 8744667387718760901, guid: 5deb7a96e817d4047bc69de41f55edda, type: 3}
  - m_RefCount: 1
    m_Data: {fileID: 5315220734466946538, guid: 5deb7a96e817d4047bc69de41f55edda, type: 3}
  - m_RefCount: 1
    m_Data: {fileID: -607699890154111130, guid: 5deb7a96e817d4047bc69de41f55edda, type: 3}
  - m_RefCount: 1
    m_Data: {fileID: -7333110658531472432, guid: 5deb7a96e817d4047bc69de41f55edda, type: 3}
  - m_RefCount: 1
    m_Data: {fileID: 3980745036264796858, guid: 5deb7a96e817d4047bc69de41f55edda, type: 3}
  - m_RefCount: 1
    m_Data: {fileID: -3793974871920905911, guid: 5deb7a96e817d4047bc69de41f55edda, type: 3}
  - m_RefCount: 1
    m_Data: {fileID: -3772265571867465516, guid: 5deb7a96e817d4047bc69de41f55edda, type: 3}
  - m_RefCount: 1
    m_Data: {fileID: 5863388998001798266, guid: 5deb7a96e817d4047bc69de41f55edda, type: 3}
  - m_RefCount: 1
    m_Data: {fileID: -7070667768310030941, guid: 5deb7a96e817d4047bc69de41f55edda, type: 3}
  - m_RefCount: 1
    m_Data: {fileID: -4928575399586799440, guid: 5deb7a96e817d4047bc69de41f55edda, type: 3}
  - m_RefCount: 1
    m_Data: {fileID: -2721204317439239495, guid: 5deb7a96e817d4047bc69de41f55edda, type: 3}
  - m_RefCount: 1
    m_Data: {fileID: -3359915289523667342, guid: 5deb7a96e817d4047bc69de41f55edda, type: 3}
  - m_RefCount: 1
    m_Data: {fileID: 1992245419571533799, guid: 5deb7a96e817d4047bc69de41f55edda, type: 3}
  - m_RefCount: 1
    m_Data: {fileID: 3748949146774180304, guid: 5deb7a96e817d4047bc69de41f55edda, type: 3}
  - m_RefCount: 1
    m_Data: {fileID: 3995562324714226836, guid: 5deb7a96e817d4047bc69de41f55edda, type: 3}
  - m_RefCount: 1
    m_Data: {fileID: 6716437066806544729, guid: 5deb7a96e817d4047bc69de41f55edda, type: 3}
  - m_RefCount: 1
    m_Data: {fileID: -7689073251956722581, guid: 5deb7a96e817d4047bc69de41f55edda, type: 3}
  - m_RefCount: 1
    m_Data: {fileID: 6795872097822507051, guid: 5deb7a96e817d4047bc69de41f55edda, type: 3}
  - m_RefCount: 1
    m_Data: {fileID: 2881413467203397824, guid: 5deb7a96e817d4047bc69de41f55edda, type: 3}
  - m_RefCount: 1
    m_Data: {fileID: 1183679284303997034, guid: 5deb7a96e817d4047bc69de41f55edda, type: 3}
  - m_RefCount: 1
    m_Data: {fileID: -7492024260109393718, guid: 5deb7a96e817d4047bc69de41f55edda, type: 3}
  - m_RefCount: 1
    m_Data: {fileID: 3873794795752335818, guid: 5deb7a96e817d4047bc69de41f55edda, type: 3}
  - m_RefCount: 1
    m_Data: {fileID: -8132589228713266058, guid: 5deb7a96e817d4047bc69de41f55edda, type: 3}
  - m_RefCount: 1
    m_Data: {fileID: -9163923038788772481, guid: 5deb7a96e817d4047bc69de41f55edda, type: 3}
  - m_RefCount: 1
    m_Data: {fileID: -719498991660650704, guid: 5deb7a96e817d4047bc69de41f55edda, type: 3}
  - m_RefCount: 1
    m_Data: {fileID: -8088396963113661900, guid: 5deb7a96e817d4047bc69de41f55edda, type: 3}
  - m_RefCount: 1
    m_Data: {fileID: -1617693260522830742, guid: 5deb7a96e817d4047bc69de41f55edda, type: 3}
  - m_RefCount: 1
    m_Data: {fileID: -4946625156397283710, guid: 5deb7a96e817d4047bc69de41f55edda, type: 3}
  - m_RefCount: 1
    m_Data: {fileID: 8971861529404160664, guid: 5deb7a96e817d4047bc69de41f55edda, type: 3}
  - m_RefCount: 1
    m_Data: {fileID: 7683304719998153448, guid: 5deb7a96e817d4047bc69de41f55edda, type: 3}
  - m_RefCount: 1
    m_Data: {fileID: 8755347522161259403, guid: 5deb7a96e817d4047bc69de41f55edda, type: 3}
  - m_RefCount: 1
    m_Data: {fileID: -2955545524203152135, guid: 5deb7a96e817d4047bc69de41f55edda, type: 3}
  - m_RefCount: 1
    m_Data: {fileID: -2344113559578498824, guid: 5deb7a96e817d4047bc69de41f55edda, type: 3}
  - m_RefCount: 1
    m_Data: {fileID: 8729002900725916789, guid: 5deb7a96e817d4047bc69de41f55edda, type: 3}
  - m_RefCount: 1
    m_Data: {fileID: -1521028480502446410, guid: 5deb7a96e817d4047bc69de41f55edda, type: 3}
  - m_RefCount: 1
    m_Data: {fileID: -3207636477250859407, guid: 5deb7a96e817d4047bc69de41f55edda, type: 3}
  - m_RefCount: 1
    m_Data: {fileID: -8844439037160991382, guid: 5deb7a96e817d4047bc69de41f55edda, type: 3}
  - m_RefCount: 1
    m_Data: {fileID: 7676497981591633085, guid: 5deb7a96e817d4047bc69de41f55edda, type: 3}
  - m_RefCount: 1
    m_Data: {fileID: 3685517088373309472, guid: 5deb7a96e817d4047bc69de41f55edda, type: 3}
  - m_RefCount: 1
    m_Data: {fileID: -8609192669859250272, guid: 5deb7a96e817d4047bc69de41f55edda, type: 3}
  - m_RefCount: 1
    m_Data: {fileID: -6581736375120931725, guid: 5deb7a96e817d4047bc69de41f55edda, type: 3}
  - m_RefCount: 1
    m_Data: {fileID: -5210420154604538503, guid: 5deb7a96e817d4047bc69de41f55edda, type: 3}
  - m_RefCount: 1
    m_Data: {fileID: 2231449167302496956, guid: 5deb7a96e817d4047bc69de41f55edda, type: 3}
  - m_RefCount: 1
    m_Data: {fileID: 7221555827114522684, guid: 5deb7a96e817d4047bc69de41f55edda, type: 3}
  - m_RefCount: 1
    m_Data: {fileID: 3825007016149429447, guid: 5deb7a96e817d4047bc69de41f55edda, type: 3}
  - m_RefCount: 1
    m_Data: {fileID: -2690187245109489581, guid: 5deb7a96e817d4047bc69de41f55edda, type: 3}
  - m_RefCount: 1
    m_Data: {fileID: 7916571908438677834, guid: 5deb7a96e817d4047bc69de41f55edda, type: 3}
  - m_RefCount: 1
    m_Data: {fileID: -3936792969271059488, guid: 5deb7a96e817d4047bc69de41f55edda, type: 3}
  - m_RefCount: 1
    m_Data: {fileID: 1131679583127040505, guid: 5deb7a96e817d4047bc69de41f55edda, type: 3}
  - m_RefCount: 1
    m_Data: {fileID: 8643226880980095852, guid: 5deb7a96e817d4047bc69de41f55edda, type: 3}
  - m_RefCount: 1
    m_Data: {fileID: 5291935105644800908, guid: 5deb7a96e817d4047bc69de41f55edda, type: 3}
  - m_RefCount: 1
    m_Data: {fileID: -7467861631280715114, guid: 5deb7a96e817d4047bc69de41f55edda, type: 3}
  m_TileMatrixArray:
  - m_RefCount: 67
    m_Data:
      e00: 1
      e01: 0
      e02: 0
      e03: 0
      e10: 0
      e11: 1
      e12: 0
      e13: 0
      e20: 0
      e21: 0
      e22: 1
      e23: 0
      e30: 0
      e31: 0
      e32: 0
      e33: 1
  m_TileColorArray:
  - m_RefCount: 67
    m_Data: {r: 1, g: 1, b: 1, a: 1}
  m_TileObjectToInstantiateArray: []
  m_AnimationFrameRate: 1
  m_Color: {r: 1, g: 1, b: 1, a: 1}
  m_Origin: {x: -1, y: -16, z: 0}
  m_Size: {x: 4, y: 17, z: 1}
  m_TileAnchor: {x: 0.5, y: 0.5, z: 0}
  m_TileOrientation: 0
  m_TileOrientationMatrix:
    e00: 1
    e01: 0
    e02: 0
    e03: 0
    e10: 0
    e11: 1
    e12: 0
    e13: 0
    e20: 0
    e21: 0
    e22: 1
    e23: 0
    e30: 0
    e31: 0
    e32: 0
    e33: 1
--- !u!483693784 &8862871555105716586
TilemapRenderer:
  m_ObjectHideFlags: 0
  m_CorrespondingSourceObject: {fileID: 0}
  m_PrefabInstance: {fileID: 0}
  m_PrefabAsset: {fileID: 0}
  m_GameObject: {fileID: 3247183556036981219}
  m_Enabled: 1
  m_CastShadows: 0
  m_ReceiveShadows: 0
  m_DynamicOccludee: 0
  m_MotionVectors: 1
  m_LightProbeUsage: 0
  m_ReflectionProbeUsage: 0
  m_RayTracingMode: 0
  m_RayTraceProcedural: 0
  m_RenderingLayerMask: 1
  m_RendererPriority: 0
  m_Materials:
  - {fileID: 2100000, guid: a97c105638bdf8b4a8650670310a4cd3, type: 2}
  m_StaticBatchInfo:
    firstSubMesh: 0
    subMeshCount: 0
  m_StaticBatchRoot: {fileID: 0}
  m_ProbeAnchor: {fileID: 0}
  m_LightProbeVolumeOverride: {fileID: 0}
  m_ScaleInLightmap: 1
  m_ReceiveGI: 1
  m_PreserveUVs: 0
  m_IgnoreNormalsForChartDetection: 0
  m_ImportantGI: 0
  m_StitchLightmapSeams: 1
  m_SelectedEditorRenderState: 0
  m_MinimumChartSize: 4
  m_AutoUVMaxDistance: 0.5
  m_AutoUVMaxAngle: 89
  m_LightmapParameters: {fileID: 0}
  m_SortingLayerID: 0
  m_SortingLayer: 0
  m_SortingOrder: 0
  m_ChunkSize: {x: 32, y: 32, z: 32}
  m_ChunkCullingBounds: {x: 0, y: 0, z: 0}
  m_MaxChunkCount: 16
  m_MaxFrameAge: 16
  m_SortOrder: 0
  m_Mode: 0
  m_DetectChunkCullingBounds: 0
  m_MaskInteraction: 0
--- !u!1 &6547798822503017849
GameObject:
  m_ObjectHideFlags: 0
  m_CorrespondingSourceObject: {fileID: 0}
  m_PrefabInstance: {fileID: 0}
  m_PrefabAsset: {fileID: 0}
  serializedVersion: 6
  m_Component:
  - component: {fileID: 2403139139689847053}
  - component: {fileID: 457313818682812777}
  m_Layer: 31
  m_Name: Forest
  m_TagString: Untagged
  m_Icon: {fileID: 0}
  m_NavMeshLayer: 0
  m_StaticEditorFlags: 0
  m_IsActive: 1
--- !u!4 &2403139139689847053
Transform:
  m_ObjectHideFlags: 0
  m_CorrespondingSourceObject: {fileID: 0}
  m_PrefabInstance: {fileID: 0}
  m_PrefabAsset: {fileID: 0}
  m_GameObject: {fileID: 6547798822503017849}
  m_LocalRotation: {x: 0, y: 0, z: 0, w: 1}
  m_LocalPosition: {x: 0, y: 0, z: 0}
  m_LocalScale: {x: 1, y: 1, z: 1}
  m_Children:
  - {fileID: 3002286436002847718}
  m_Father: {fileID: 0}
  m_RootOrder: 0
  m_LocalEulerAnglesHint: {x: 0, y: 0, z: 0}
--- !u!156049354 &457313818682812777
Grid:
  m_ObjectHideFlags: 0
  m_CorrespondingSourceObject: {fileID: 0}
  m_PrefabInstance: {fileID: 0}
  m_PrefabAsset: {fileID: 0}
  m_GameObject: {fileID: 6547798822503017849}
  m_Enabled: 1
  m_CellSize: {x: 1, y: 1, z: 0}
  m_CellGap: {x: 0, y: 0, z: 0}
  m_CellLayout: 0
  m_CellSwizzle: 0
--- !u!114 &3499571723739509625
MonoBehaviour:
  m_ObjectHideFlags: 0
  m_CorrespondingSourceObject: {fileID: 0}
  m_PrefabInstance: {fileID: 0}
  m_PrefabAsset: {fileID: 0}
  m_GameObject: {fileID: 0}
  m_Enabled: 1
  m_EditorHideFlags: 0
  m_Script: {fileID: 12395, guid: 0000000000000000e000000000000000, type: 0}
  m_Name: Palette Settings
  m_EditorClassIdentifier: 
  cellSizing: 0
  m_TransparencySortMode: 0
  m_TransparencySortAxis: {x: 0, y: 0, z: 1}
