%YAML 1.1
%TAG !u! tag:unity3d.com,2011:
--- !u!1 &1170749049449223554
GameObject:
  m_ObjectHideFlags: 0
  m_CorrespondingSourceObject: {fileID: 0}
  m_PrefabInstance: {fileID: 0}
  m_PrefabAsset: {fileID: 0}
  serializedVersion: 6
  m_Component:
  - component: {fileID: 7924142419130961254}
  - component: {fileID: 3711669174511033477}
  - component: {fileID: 4793933011272597863}
  m_Layer: 0
  m_Name: Layer1
  m_TagString: Untagged
  m_Icon: {fileID: 0}
  m_NavMeshLayer: 0
  m_StaticEditorFlags: 0
  m_IsActive: 1
--- !u!4 &7924142419130961254
Transform:
  m_ObjectHideFlags: 0
  m_CorrespondingSourceObject: {fileID: 0}
  m_PrefabInstance: {fileID: 0}
  m_PrefabAsset: {fileID: 0}
  m_GameObject: {fileID: 1170749049449223554}
  m_LocalRotation: {x: -0, y: -0, z: -0, w: 1}
  m_LocalPosition: {x: 0, y: 0, z: 0}
  m_LocalScale: {x: 1, y: 1, z: 1}
  m_Children: []
  m_Father: {fileID: 270168516825513940}
  m_RootOrder: 0
  m_LocalEulerAnglesHint: {x: 0, y: 0, z: 0}
--- !u!1839735485 &3711669174511033477
Tilemap:
  m_ObjectHideFlags: 0
  m_CorrespondingSourceObject: {fileID: 0}
  m_PrefabInstance: {fileID: 0}
  m_PrefabAsset: {fileID: 0}
  m_GameObject: {fileID: 1170749049449223554}
  m_Enabled: 1
  m_Tiles:
  - first: {x: -1, y: -7, z: 0}
    second:
      serializedVersion: 2
      m_TileIndex: 28
      m_TileSpriteIndex: 28
      m_TileMatrixIndex: 0
      m_TileColorIndex: 0
      m_TileObjectToInstantiateIndex: 65535
      dummyAlignment: 0
      m_AllTileFlags: 1073741825
  - first: {x: 0, y: -7, z: 0}
    second:
      serializedVersion: 2
      m_TileIndex: 29
      m_TileSpriteIndex: 29
      m_TileMatrixIndex: 0
      m_TileColorIndex: 0
      m_TileObjectToInstantiateIndex: 65535
      dummyAlignment: 0
      m_AllTileFlags: 1073741825
  - first: {x: 1, y: -7, z: 0}
    second:
      serializedVersion: 2
      m_TileIndex: 30
      m_TileSpriteIndex: 30
      m_TileMatrixIndex: 0
      m_TileColorIndex: 0
      m_TileObjectToInstantiateIndex: 65535
      dummyAlignment: 0
      m_AllTileFlags: 1073741825
  - first: {x: 2, y: -7, z: 0}
    second:
      serializedVersion: 2
      m_TileIndex: 31
      m_TileSpriteIndex: 31
      m_TileMatrixIndex: 0
      m_TileColorIndex: 0
      m_TileObjectToInstantiateIndex: 65535
      dummyAlignment: 0
      m_AllTileFlags: 1073741825
  - first: {x: -1, y: -6, z: 0}
    second:
      serializedVersion: 2
      m_TileIndex: 24
      m_TileSpriteIndex: 24
      m_TileMatrixIndex: 0
      m_TileColorIndex: 0
      m_TileObjectToInstantiateIndex: 65535
      dummyAlignment: 0
      m_AllTileFlags: 1073741825
  - first: {x: 0, y: -6, z: 0}
    second:
      serializedVersion: 2
      m_TileIndex: 25
      m_TileSpriteIndex: 25
      m_TileMatrixIndex: 0
      m_TileColorIndex: 0
      m_TileObjectToInstantiateIndex: 65535
      dummyAlignment: 0
      m_AllTileFlags: 1073741825
  - first: {x: 1, y: -6, z: 0}
    second:
      serializedVersion: 2
      m_TileIndex: 26
      m_TileSpriteIndex: 26
      m_TileMatrixIndex: 0
      m_TileColorIndex: 0
      m_TileObjectToInstantiateIndex: 65535
      dummyAlignment: 0
      m_AllTileFlags: 1073741825
  - first: {x: 2, y: -6, z: 0}
    second:
      serializedVersion: 2
      m_TileIndex: 27
      m_TileSpriteIndex: 27
      m_TileMatrixIndex: 0
      m_TileColorIndex: 0
      m_TileObjectToInstantiateIndex: 65535
      dummyAlignment: 0
      m_AllTileFlags: 1073741825
  - first: {x: -1, y: -5, z: 0}
    second:
      serializedVersion: 2
      m_TileIndex: 20
      m_TileSpriteIndex: 20
      m_TileMatrixIndex: 0
      m_TileColorIndex: 0
      m_TileObjectToInstantiateIndex: 65535
      dummyAlignment: 0
      m_AllTileFlags: 1073741825
  - first: {x: 0, y: -5, z: 0}
    second:
      serializedVersion: 2
      m_TileIndex: 21
      m_TileSpriteIndex: 21
      m_TileMatrixIndex: 0
      m_TileColorIndex: 0
      m_TileObjectToInstantiateIndex: 65535
      dummyAlignment: 0
      m_AllTileFlags: 1073741825
  - first: {x: 1, y: -5, z: 0}
    second:
      serializedVersion: 2
      m_TileIndex: 22
      m_TileSpriteIndex: 22
      m_TileMatrixIndex: 0
      m_TileColorIndex: 0
      m_TileObjectToInstantiateIndex: 65535
      dummyAlignment: 0
      m_AllTileFlags: 1073741825
  - first: {x: 2, y: -5, z: 0}
    second:
      serializedVersion: 2
      m_TileIndex: 23
      m_TileSpriteIndex: 23
      m_TileMatrixIndex: 0
      m_TileColorIndex: 0
      m_TileObjectToInstantiateIndex: 65535
      dummyAlignment: 0
      m_AllTileFlags: 1073741825
  - first: {x: 5, y: -5, z: 0}
    second:
      serializedVersion: 2
      m_TileIndex: 32
      m_TileSpriteIndex: 32
      m_TileMatrixIndex: 0
      m_TileColorIndex: 0
      m_TileObjectToInstantiateIndex: 65535
      dummyAlignment: 0
      m_AllTileFlags: 1073741825
  - first: {x: 7, y: -5, z: 0}
    second:
      serializedVersion: 2
      m_TileIndex: 34
      m_TileSpriteIndex: 34
      m_TileMatrixIndex: 0
      m_TileColorIndex: 0
      m_TileObjectToInstantiateIndex: 65535
      dummyAlignment: 0
      m_AllTileFlags: 1073741825
  - first: {x: 8, y: -5, z: 0}
    second:
      serializedVersion: 2
      m_TileIndex: 35
      m_TileSpriteIndex: 35
      m_TileMatrixIndex: 0
      m_TileColorIndex: 0
      m_TileObjectToInstantiateIndex: 65535
      dummyAlignment: 0
      m_AllTileFlags: 1073741825
  - first: {x: -1, y: -4, z: 0}
    second:
      serializedVersion: 2
      m_TileIndex: 16
      m_TileSpriteIndex: 16
      m_TileMatrixIndex: 0
      m_TileColorIndex: 0
      m_TileObjectToInstantiateIndex: 65535
      dummyAlignment: 0
      m_AllTileFlags: 1073741825
  - first: {x: 0, y: -4, z: 0}
    second:
      serializedVersion: 2
      m_TileIndex: 17
      m_TileSpriteIndex: 17
      m_TileMatrixIndex: 0
      m_TileColorIndex: 0
      m_TileObjectToInstantiateIndex: 65535
      dummyAlignment: 0
      m_AllTileFlags: 1073741825
  - first: {x: 1, y: -4, z: 0}
    second:
      serializedVersion: 2
      m_TileIndex: 18
      m_TileSpriteIndex: 18
      m_TileMatrixIndex: 0
      m_TileColorIndex: 0
      m_TileObjectToInstantiateIndex: 65535
      dummyAlignment: 0
      m_AllTileFlags: 1073741825
  - first: {x: 2, y: -4, z: 0}
    second:
      serializedVersion: 2
      m_TileIndex: 19
      m_TileSpriteIndex: 19
      m_TileMatrixIndex: 0
      m_TileColorIndex: 0
      m_TileObjectToInstantiateIndex: 65535
      dummyAlignment: 0
      m_AllTileFlags: 1073741825
  - first: {x: -1, y: -3, z: 0}
    second:
      serializedVersion: 2
      m_TileIndex: 12
      m_TileSpriteIndex: 12
      m_TileMatrixIndex: 0
      m_TileColorIndex: 0
      m_TileObjectToInstantiateIndex: 65535
      dummyAlignment: 0
      m_AllTileFlags: 1073741825
  - first: {x: 0, y: -3, z: 0}
    second:
      serializedVersion: 2
      m_TileIndex: 13
      m_TileSpriteIndex: 13
      m_TileMatrixIndex: 0
      m_TileColorIndex: 0
      m_TileObjectToInstantiateIndex: 65535
      dummyAlignment: 0
      m_AllTileFlags: 1073741825
  - first: {x: 1, y: -3, z: 0}
    second:
      serializedVersion: 2
      m_TileIndex: 14
      m_TileSpriteIndex: 14
      m_TileMatrixIndex: 0
      m_TileColorIndex: 0
      m_TileObjectToInstantiateIndex: 65535
      dummyAlignment: 0
      m_AllTileFlags: 1073741825
  - first: {x: 2, y: -3, z: 0}
    second:
      serializedVersion: 2
      m_TileIndex: 15
      m_TileSpriteIndex: 15
      m_TileMatrixIndex: 0
      m_TileColorIndex: 0
      m_TileObjectToInstantiateIndex: 65535
      dummyAlignment: 0
      m_AllTileFlags: 1073741825
  - first: {x: -1, y: -2, z: 0}
    second:
      serializedVersion: 2
      m_TileIndex: 8
      m_TileSpriteIndex: 8
      m_TileMatrixIndex: 0
      m_TileColorIndex: 0
      m_TileObjectToInstantiateIndex: 65535
      dummyAlignment: 0
      m_AllTileFlags: 1073741825
  - first: {x: 0, y: -2, z: 0}
    second:
      serializedVersion: 2
      m_TileIndex: 9
      m_TileSpriteIndex: 9
      m_TileMatrixIndex: 0
      m_TileColorIndex: 0
      m_TileObjectToInstantiateIndex: 65535
      dummyAlignment: 0
      m_AllTileFlags: 1073741825
  - first: {x: 1, y: -2, z: 0}
    second:
      serializedVersion: 2
      m_TileIndex: 10
      m_TileSpriteIndex: 10
      m_TileMatrixIndex: 0
      m_TileColorIndex: 0
      m_TileObjectToInstantiateIndex: 65535
      dummyAlignment: 0
      m_AllTileFlags: 1073741825
  - first: {x: 2, y: -2, z: 0}
    second:
      serializedVersion: 2
      m_TileIndex: 11
      m_TileSpriteIndex: 11
      m_TileMatrixIndex: 0
      m_TileColorIndex: 0
      m_TileObjectToInstantiateIndex: 65535
      dummyAlignment: 0
      m_AllTileFlags: 1073741825
  - first: {x: -1, y: -1, z: 0}
    second:
      serializedVersion: 2
      m_TileIndex: 4
      m_TileSpriteIndex: 4
      m_TileMatrixIndex: 0
      m_TileColorIndex: 0
      m_TileObjectToInstantiateIndex: 65535
      dummyAlignment: 0
      m_AllTileFlags: 1073741825
  - first: {x: 0, y: -1, z: 0}
    second:
      serializedVersion: 2
      m_TileIndex: 5
      m_TileSpriteIndex: 5
      m_TileMatrixIndex: 0
      m_TileColorIndex: 0
      m_TileObjectToInstantiateIndex: 65535
      dummyAlignment: 0
      m_AllTileFlags: 1073741825
  - first: {x: 1, y: -1, z: 0}
    second:
      serializedVersion: 2
      m_TileIndex: 6
      m_TileSpriteIndex: 6
      m_TileMatrixIndex: 0
      m_TileColorIndex: 0
      m_TileObjectToInstantiateIndex: 65535
      dummyAlignment: 0
      m_AllTileFlags: 1073741825
  - first: {x: 2, y: -1, z: 0}
    second:
      serializedVersion: 2
      m_TileIndex: 7
      m_TileSpriteIndex: 7
      m_TileMatrixIndex: 0
      m_TileColorIndex: 0
      m_TileObjectToInstantiateIndex: 65535
      dummyAlignment: 0
      m_AllTileFlags: 1073741825
  - first: {x: -1, y: 0, z: 0}
    second:
      serializedVersion: 2
      m_TileIndex: 0
      m_TileSpriteIndex: 0
      m_TileMatrixIndex: 0
      m_TileColorIndex: 0
      m_TileObjectToInstantiateIndex: 65535
      dummyAlignment: 0
      m_AllTileFlags: 1073741825
  - first: {x: 0, y: 0, z: 0}
    second:
      serializedVersion: 2
      m_TileIndex: 1
      m_TileSpriteIndex: 1
      m_TileMatrixIndex: 0
      m_TileColorIndex: 0
      m_TileObjectToInstantiateIndex: 65535
      dummyAlignment: 0
      m_AllTileFlags: 1073741825
  - first: {x: 1, y: 0, z: 0}
    second:
      serializedVersion: 2
      m_TileIndex: 2
      m_TileSpriteIndex: 2
      m_TileMatrixIndex: 0
      m_TileColorIndex: 0
      m_TileObjectToInstantiateIndex: 65535
      dummyAlignment: 0
      m_AllTileFlags: 1073741825
  - first: {x: 2, y: 0, z: 0}
    second:
      serializedVersion: 2
      m_TileIndex: 3
      m_TileSpriteIndex: 3
      m_TileMatrixIndex: 0
      m_TileColorIndex: 0
      m_TileObjectToInstantiateIndex: 65535
      dummyAlignment: 0
      m_AllTileFlags: 1073741825
  - first: {x: 5, y: 0, z: 0}
    second:
      serializedVersion: 2
      m_TileIndex: 33
      m_TileSpriteIndex: 33
      m_TileMatrixIndex: 0
      m_TileColorIndex: 0
      m_TileObjectToInstantiateIndex: 65535
      dummyAlignment: 0
      m_AllTileFlags: 1073741825
  - first: {x: 0, y: 2, z: 0}
    second:
      serializedVersion: 2
      m_TileIndex: 38
      m_TileSpriteIndex: 38
      m_TileMatrixIndex: 0
      m_TileColorIndex: 0
      m_TileObjectToInstantiateIndex: 65535
      dummyAlignment: 0
      m_AllTileFlags: 0
  - first: {x: 0, y: 3, z: 0}
    second:
      serializedVersion: 2
      m_TileIndex: 37
      m_TileSpriteIndex: 37
      m_TileMatrixIndex: 0
      m_TileColorIndex: 0
      m_TileObjectToInstantiateIndex: 65535
      dummyAlignment: 0
      m_AllTileFlags: 0
  m_AnimatedTiles:
  - first: {x: 0, y: 2, z: 0}
    second:
      m_AnimatedSprites:
      - {fileID: 1725676371340164549, guid: ea3d66a7edd9d46d38e40be89ae8d3cf, type: 3}
      - {fileID: 2872686455240326431, guid: ea3d66a7edd9d46d38e40be89ae8d3cf, type: 3}
      - {fileID: 3786080894526622295, guid: ea3d66a7edd9d46d38e40be89ae8d3cf, type: 3}
      - {fileID: 5045660051849922305, guid: ea3d66a7edd9d46d38e40be89ae8d3cf, type: 3}
      - {fileID: 5612536237972652912, guid: ea3d66a7edd9d46d38e40be89ae8d3cf, type: 3}
      m_AnimationSpeed: 10
      m_AnimationTimeOffset: 0
      m_IsLooping: 1
  - first: {x: 0, y: 3, z: 0}
    second:
      m_AnimatedSprites:
      - {fileID: 4721293536888397434, guid: ea3d66a7edd9d46d38e40be89ae8d3cf, type: 3}
      - {fileID: 5364352939883245045, guid: ea3d66a7edd9d46d38e40be89ae8d3cf, type: 3}
      - {fileID: 7196270143389622831, guid: ea3d66a7edd9d46d38e40be89ae8d3cf, type: 3}
      - {fileID: 6029957480157117390, guid: ea3d66a7edd9d46d38e40be89ae8d3cf, type: 3}
      - {fileID: -2507161886035769597, guid: ea3d66a7edd9d46d38e40be89ae8d3cf, type: 3}
      m_AnimationSpeed: 10
      m_AnimationTimeOffset: 0
      m_IsLooping: 1
  m_TileAssetArray:
  - m_RefCount: 1
    m_Data: {fileID: 11400000, guid: c672afe603fd65c4199f28cbef742e37, type: 2}
  - m_RefCount: 1
    m_Data: {fileID: 11400000, guid: 65a39b6ec8e8be147ac61c7878a94590, type: 2}
  - m_RefCount: 1
    m_Data: {fileID: 11400000, guid: a4c79cc8e9bf9cc4f9b505f8539267d5, type: 2}
  - m_RefCount: 1
    m_Data: {fileID: 11400000, guid: 9507595df67203f438eb237cd949c989, type: 2}
  - m_RefCount: 1
    m_Data: {fileID: 11400000, guid: 9e85d110a5b970c4bbf8032b042e34ce, type: 2}
  - m_RefCount: 1
    m_Data: {fileID: 11400000, guid: 26ee1a0eee890c7409ca7f0fd2679fa5, type: 2}
  - m_RefCount: 1
    m_Data: {fileID: 11400000, guid: 9245942e647349b4d8e72600ff15db8e, type: 2}
  - m_RefCount: 1
    m_Data: {fileID: 11400000, guid: 5622015d1c03166419b5becf8544e2c9, type: 2}
  - m_RefCount: 1
    m_Data: {fileID: 11400000, guid: 6c244593ac278ba4484800977e593937, type: 2}
  - m_RefCount: 1
    m_Data: {fileID: 11400000, guid: bb6432c278625f34785a9de56d50a8f3, type: 2}
  - m_RefCount: 1
    m_Data: {fileID: 11400000, guid: 5dae8ea7e051bb14a80892277e88af90, type: 2}
  - m_RefCount: 1
    m_Data: {fileID: 11400000, guid: 82cdcf6db7f6c934e9c6aa91c5c9047c, type: 2}
  - m_RefCount: 1
    m_Data: {fileID: 11400000, guid: c741827e8bf6e4640bc194eb97636a1f, type: 2}
  - m_RefCount: 1
    m_Data: {fileID: 11400000, guid: 14a205a03bb25f7498064ce9307fcdb1, type: 2}
  - m_RefCount: 1
    m_Data: {fileID: 11400000, guid: 55c2cf4202c1df44bb0de3973fa0c5cd, type: 2}
  - m_RefCount: 1
    m_Data: {fileID: 11400000, guid: e12a03f8ea39c6049bfaa6db5050ab11, type: 2}
  - m_RefCount: 1
    m_Data: {fileID: 11400000, guid: 93a5f1a6e89e34c418e23c1e08f19044, type: 2}
  - m_RefCount: 1
    m_Data: {fileID: 11400000, guid: 8b0280f8607ab494190e3d8639a60db8, type: 2}
  - m_RefCount: 1
    m_Data: {fileID: 11400000, guid: 5451ea91368e9f24485cffbfcf5afd61, type: 2}
  - m_RefCount: 1
    m_Data: {fileID: 11400000, guid: 613dd99d5dc5b9447a67278e4b0d3a53, type: 2}
  - m_RefCount: 1
    m_Data: {fileID: 11400000, guid: 4578ba8af67bf1548afe15c29c71aee8, type: 2}
  - m_RefCount: 1
    m_Data: {fileID: 11400000, guid: f4b4cb21ced9c9245af3eb5352d9e795, type: 2}
  - m_RefCount: 1
    m_Data: {fileID: 11400000, guid: dc08257e6ebde7247afaab6303663cc3, type: 2}
  - m_RefCount: 1
    m_Data: {fileID: 11400000, guid: 94de6719d5761274eb535ed75782c766, type: 2}
  - m_RefCount: 1
    m_Data: {fileID: 11400000, guid: 3774f093b16e65947b6ddf8ba7ba355a, type: 2}
  - m_RefCount: 1
    m_Data: {fileID: 11400000, guid: 0986eb00c42765845be8442ad5e4c7a2, type: 2}
  - m_RefCount: 1
    m_Data: {fileID: 11400000, guid: b53dd3727172137489d9977128373022, type: 2}
  - m_RefCount: 1
    m_Data: {fileID: 11400000, guid: 1b4eb8378092aa542bfff4e30c4dfc1f, type: 2}
  - m_RefCount: 1
    m_Data: {fileID: 11400000, guid: 025223d366e322e4b8e834ae056f9ca9, type: 2}
  - m_RefCount: 1
    m_Data: {fileID: 11400000, guid: c1fc351b43a7e6741a376b708587fb7a, type: 2}
  - m_RefCount: 1
    m_Data: {fileID: 11400000, guid: eff43c88063b2214b959ee3146453800, type: 2}
  - m_RefCount: 1
    m_Data: {fileID: 11400000, guid: 3812e6dd113bab345b0c81819279fb58, type: 2}
  - m_RefCount: 1
    m_Data: {fileID: 11400000, guid: 45885a5f4dffdb44dbfa9a1f46269252, type: 2}
  - m_RefCount: 1
    m_Data: {fileID: 11400000, guid: db4371e483b1bcc4cbb9aafa64350dfa, type: 2}
  - m_RefCount: 1
    m_Data: {fileID: 11400000, guid: 2ddaaf2739db65e4b9b47d65ced8f676, type: 2}
  - m_RefCount: 1
    m_Data: {fileID: 11400000, guid: 1a3bb38678683f2498b4826d193ce15b, type: 2}
  - m_RefCount: 0
    m_Data: {fileID: 0}
  - m_RefCount: 1
    m_Data: {fileID: 11400000, guid: 9eb6880a443e94253bbdc5b52fa3e1d3, type: 2}
  - m_RefCount: 1
    m_Data: {fileID: 11400000, guid: 6cac02ba5b9814dbcb8988ddc06da6bb, type: 2}
  m_TileSpriteArray:
  - m_RefCount: 1
    m_Data: {fileID: 5554216122756231235, guid: 833a05f7c7d0c52469e574ba92ddb4a7, type: 3}
  - m_RefCount: 1
    m_Data: {fileID: -698430232215783580, guid: 833a05f7c7d0c52469e574ba92ddb4a7, type: 3}
  - m_RefCount: 1
    m_Data: {fileID: 4147918004279806369, guid: 833a05f7c7d0c52469e574ba92ddb4a7, type: 3}
  - m_RefCount: 1
    m_Data: {fileID: -4480275557554697091, guid: 833a05f7c7d0c52469e574ba92ddb4a7, type: 3}
  - m_RefCount: 1
    m_Data: {fileID: -5056221437634338576, guid: 833a05f7c7d0c52469e574ba92ddb4a7, type: 3}
  - m_RefCount: 1
    m_Data: {fileID: -2088846769777093343, guid: 833a05f7c7d0c52469e574ba92ddb4a7, type: 3}
  - m_RefCount: 1
    m_Data: {fileID: 8877368982792376436, guid: 833a05f7c7d0c52469e574ba92ddb4a7, type: 3}
  - m_RefCount: 1
    m_Data: {fileID: -6596922490365097136, guid: 833a05f7c7d0c52469e574ba92ddb4a7, type: 3}
  - m_RefCount: 1
    m_Data: {fileID: 3334812204250238074, guid: 833a05f7c7d0c52469e574ba92ddb4a7, type: 3}
  - m_RefCount: 1
    m_Data: {fileID: 5967795795837306674, guid: 833a05f7c7d0c52469e574ba92ddb4a7, type: 3}
  - m_RefCount: 1
    m_Data: {fileID: -5691303060676991829, guid: 833a05f7c7d0c52469e574ba92ddb4a7, type: 3}
  - m_RefCount: 1
    m_Data: {fileID: 6684933757121811547, guid: 833a05f7c7d0c52469e574ba92ddb4a7, type: 3}
  - m_RefCount: 1
    m_Data: {fileID: -9191143059727539874, guid: 833a05f7c7d0c52469e574ba92ddb4a7, type: 3}
  - m_RefCount: 1
    m_Data: {fileID: 8804346995418868313, guid: 833a05f7c7d0c52469e574ba92ddb4a7, type: 3}
  - m_RefCount: 1
    m_Data: {fileID: -3015341031074877397, guid: 833a05f7c7d0c52469e574ba92ddb4a7, type: 3}
  - m_RefCount: 1
    m_Data: {fileID: 6350263998776587281, guid: 833a05f7c7d0c52469e574ba92ddb4a7, type: 3}
  - m_RefCount: 1
    m_Data: {fileID: -594854023223159323, guid: 833a05f7c7d0c52469e574ba92ddb4a7, type: 3}
  - m_RefCount: 1
    m_Data: {fileID: -7520876576387851571, guid: 833a05f7c7d0c52469e574ba92ddb4a7, type: 3}
  - m_RefCount: 1
    m_Data: {fileID: 1296955713063707548, guid: 833a05f7c7d0c52469e574ba92ddb4a7, type: 3}
  - m_RefCount: 1
    m_Data: {fileID: 7828017421341732505, guid: 833a05f7c7d0c52469e574ba92ddb4a7, type: 3}
  - m_RefCount: 1
    m_Data: {fileID: 5641304389960186697, guid: 833a05f7c7d0c52469e574ba92ddb4a7, type: 3}
  - m_RefCount: 1
    m_Data: {fileID: -1149633687490783162, guid: 833a05f7c7d0c52469e574ba92ddb4a7, type: 3}
  - m_RefCount: 1
    m_Data: {fileID: 5886386325936423871, guid: 833a05f7c7d0c52469e574ba92ddb4a7, type: 3}
  - m_RefCount: 1
    m_Data: {fileID: -690582969297042733, guid: 833a05f7c7d0c52469e574ba92ddb4a7, type: 3}
  - m_RefCount: 1
    m_Data: {fileID: -2773276035432408682, guid: 833a05f7c7d0c52469e574ba92ddb4a7, type: 3}
  - m_RefCount: 1
    m_Data: {fileID: 2448625161412444324, guid: 833a05f7c7d0c52469e574ba92ddb4a7, type: 3}
  - m_RefCount: 1
    m_Data: {fileID: -4274006568956793502, guid: 833a05f7c7d0c52469e574ba92ddb4a7, type: 3}
  - m_RefCount: 1
    m_Data: {fileID: 7410775782791203494, guid: 833a05f7c7d0c52469e574ba92ddb4a7, type: 3}
  - m_RefCount: 1
    m_Data: {fileID: 7760232811376355313, guid: 833a05f7c7d0c52469e574ba92ddb4a7, type: 3}
  - m_RefCount: 1
    m_Data: {fileID: -1744333691908957594, guid: 833a05f7c7d0c52469e574ba92ddb4a7, type: 3}
  - m_RefCount: 1
    m_Data: {fileID: -5081600913789289104, guid: 833a05f7c7d0c52469e574ba92ddb4a7, type: 3}
  - m_RefCount: 1
    m_Data: {fileID: -7939286994990546459, guid: 833a05f7c7d0c52469e574ba92ddb4a7, type: 3}
  - m_RefCount: 1
    m_Data: {fileID: -3773040926290065159, guid: 2dc34189d921280448fdd78a2bd2c49a, type: 3}
  - m_RefCount: 1
    m_Data: {fileID: -7761867055256066199, guid: 2dc34189d921280448fdd78a2bd2c49a, type: 3}
  - m_RefCount: 1
    m_Data: {fileID: 318401898442563493, guid: 2dc34189d921280448fdd78a2bd2c49a, type: 3}
  - m_RefCount: 1
    m_Data: {fileID: 3429380190978139064, guid: 2dc34189d921280448fdd78a2bd2c49a, type: 3}
  - m_RefCount: 0
    m_Data: {fileID: 0}
  - m_RefCount: 1
    m_Data: {fileID: -2507161886035769597, guid: ea3d66a7edd9d46d38e40be89ae8d3cf, type: 3}
  - m_RefCount: 1
    m_Data: {fileID: 5612536237972652912, guid: ea3d66a7edd9d46d38e40be89ae8d3cf, type: 3}
  m_TileMatrixArray:
  - m_RefCount: 38
    m_Data:
      e00: 1
      e01: 0
      e02: 0
      e03: 0
      e10: 0
      e11: 1
      e12: 0
      e13: 0
      e20: 0
      e21: 0
      e22: 1
      e23: 0
      e30: 0
      e31: 0
      e32: 0
      e33: 1
  m_TileColorArray:
  - m_RefCount: 38
    m_Data: {r: 1, g: 1, b: 1, a: 1}
  m_TileObjectToInstantiateArray: []
  m_AnimationFrameRate: 1
  m_Color: {r: 1, g: 1, b: 1, a: 1}
  m_Origin: {x: -1, y: -7, z: 0}
  m_Size: {x: 10, y: 11, z: 1}
  m_TileAnchor: {x: 0.5, y: 0.5, z: 0}
  m_TileOrientation: 0
  m_TileOrientationMatrix:
    e00: 1
    e01: 0
    e02: 0
    e03: 0
    e10: 0
    e11: 1
    e12: 0
    e13: 0
    e20: 0
    e21: 0
    e22: 1
    e23: 0
    e30: 0
    e31: 0
    e32: 0
    e33: 1
--- !u!483693784 &4793933011272597863
TilemapRenderer:
  m_ObjectHideFlags: 0
  m_CorrespondingSourceObject: {fileID: 0}
  m_PrefabInstance: {fileID: 0}
  m_PrefabAsset: {fileID: 0}
  m_GameObject: {fileID: 1170749049449223554}
  m_Enabled: 1
  m_CastShadows: 0
  m_ReceiveShadows: 0
  m_DynamicOccludee: 0
  m_MotionVectors: 1
  m_LightProbeUsage: 0
  m_ReflectionProbeUsage: 0
  m_RayTracingMode: 0
  m_RayTraceProcedural: 0
  m_RenderingLayerMask: 1
  m_RendererPriority: 0
  m_Materials:
  - {fileID: 10754, guid: 0000000000000000f000000000000000, type: 0}
  m_StaticBatchInfo:
    firstSubMesh: 0
    subMeshCount: 0
  m_StaticBatchRoot: {fileID: 0}
  m_ProbeAnchor: {fileID: 0}
  m_LightProbeVolumeOverride: {fileID: 0}
  m_ScaleInLightmap: 1
  m_ReceiveGI: 1
  m_PreserveUVs: 0
  m_IgnoreNormalsForChartDetection: 0
  m_ImportantGI: 0
  m_StitchLightmapSeams: 1
  m_SelectedEditorRenderState: 0
  m_MinimumChartSize: 4
  m_AutoUVMaxDistance: 0.5
  m_AutoUVMaxAngle: 89
  m_LightmapParameters: {fileID: 0}
  m_SortingLayerID: 0
  m_SortingLayer: 0
  m_SortingOrder: 0
  m_ChunkSize: {x: 32, y: 32, z: 32}
  m_ChunkCullingBounds: {x: 1, y: 3, z: 0}
  m_MaxChunkCount: 16
  m_MaxFrameAge: 16
  m_SortOrder: 0
  m_Mode: 0
  m_DetectChunkCullingBounds: 0
  m_MaskInteraction: 0
--- !u!1 &6560038262344974335
GameObject:
  m_ObjectHideFlags: 0
  m_CorrespondingSourceObject: {fileID: 0}
  m_PrefabInstance: {fileID: 0}
  m_PrefabAsset: {fileID: 0}
  serializedVersion: 6
  m_Component:
  - component: {fileID: 270168516825513940}
  - component: {fileID: 4539007386838056460}
  m_Layer: 31
  m_Name: 'Tile Set 1 '
  m_TagString: Untagged
  m_Icon: {fileID: 0}
  m_NavMeshLayer: 0
  m_StaticEditorFlags: 0
  m_IsActive: 1
--- !u!4 &270168516825513940
Transform:
  m_ObjectHideFlags: 0
  m_CorrespondingSourceObject: {fileID: 0}
  m_PrefabInstance: {fileID: 0}
  m_PrefabAsset: {fileID: 0}
  m_GameObject: {fileID: 6560038262344974335}
  m_LocalRotation: {x: 0, y: 0, z: 0, w: 1}
  m_LocalPosition: {x: 0, y: 0, z: 0}
  m_LocalScale: {x: 1, y: 1, z: 1}
  m_Children:
  - {fileID: 7924142419130961254}
  m_Father: {fileID: 0}
  m_RootOrder: 0
  m_LocalEulerAnglesHint: {x: 0, y: 0, z: 0}
--- !u!156049354 &4539007386838056460
Grid:
  m_ObjectHideFlags: 0
  m_CorrespondingSourceObject: {fileID: 0}
  m_PrefabInstance: {fileID: 0}
  m_PrefabAsset: {fileID: 0}
  m_GameObject: {fileID: 6560038262344974335}
  m_Enabled: 1
  m_CellSize: {x: 1, y: 1, z: 0}
  m_CellGap: {x: 0, y: 0, z: 0}
  m_CellLayout: 0
  m_CellSwizzle: 0
--- !u!114 &8071666711351083220
MonoBehaviour:
  m_ObjectHideFlags: 0
  m_CorrespondingSourceObject: {fileID: 0}
  m_PrefabInstance: {fileID: 0}
  m_PrefabAsset: {fileID: 0}
  m_GameObject: {fileID: 0}
  m_Enabled: 1
  m_EditorHideFlags: 0
  m_Script: {fileID: 12395, guid: 0000000000000000e000000000000000, type: 0}
  m_Name: Palette Settings
  m_EditorClassIdentifier: 
  cellSizing: 0
  m_TransparencySortMode: 0
  m_TransparencySortAxis: {x: 0, y: 0, z: 1}
