%YAML 1.1
%TAG !u! tag:unity3d.com,2011:
--- !u!114 &11400000
MonoBehaviour:
  m_ObjectHideFlags: 0
  m_CorrespondingSourceObject: {fileID: 0}
  m_PrefabInstance: {fileID: 0}
  m_PrefabAsset: {fileID: 0}
  m_GameObject: {fileID: 0}
  m_Enabled: 1
  m_EditorHideFlags: 0
  m_Script: {fileID: 11500000, guid: 47cfd26f08ec20e458ae3ae4f7b20459, type: 3}
  m_Name: E1_EntityData
  m_EditorClassIdentifier: 
  maxHealth: 50
  recoverySpeed: 5
  damageHopSpeed: 10
  hitParticles: {fileID: 2157659140644861990, guid: b048088fd69c56e42a9e88f082b93ee4, type: 3}
  wallCheckDistance: 0.2
  ledgeCheckDistance: 0.8
  groundCheckRadius: 0.3
  minAgroDistance: 7
  maxAgroDistance: 8
  closeRangeActionDistance: 1.7
  stunResistance: 3
  stunRecoveryTime: 2
  groundMask:
    serializedVersion: 2
    m_Bits: 64
  playerMask:
    serializedVersion: 2
    m_Bits: 1024
