%YAML 1.1
%TAG !u! tag:unity3d.com,2011:
--- !u!114 &11400000
MonoBehaviour:
  m_ObjectHideFlags: 0
  m_CorrespondingSourceObject: {fileID: 0}
  m_PrefabInstance: {fileID: 0}
  m_PrefabAsset: {fileID: 0}
  m_GameObject: {fileID: 0}
  m_Enabled: 1
  m_EditorHideFlags: 0
  m_Script: {fileID: 11500000, guid: aaf3bb76ea2d9ea468453dc75bcfca27, type: 3}
  m_Name: E1_LookForPlayerStateData
  m_EditorClassIdentifier: 
  amountOfTurn: 2
  timeBetweenTurn: 0.75
