%YAML 1.1
%TAG !u! tag:unity3d.com,2011:
--- !u!114 &11400000
MonoBehaviour:
  m_ObjectHideFlags: 0
  m_CorrespondingSourceObject: {fileID: 0}
  m_PrefabInstance: {fileID: 0}
  m_PrefabAsset: {fileID: 0}
  m_GameObject: {fileID: 0}
  m_Enabled: 1
  m_EditorHideFlags: 0
  m_Script: {fileID: 11500000, guid: 8a4ec2220a220df4490cd19f984785bb, type: 3}
  m_Name: E1_StunStateData
  m_EditorClassIdentifier: 
  stunDuration: 3
  stunKnockbackTime: 0.2
  stunKnockbackSpeed: 20
  stunKnockbackAngle: {x: 1, y: 2}
