%YAML 1.1
%TAG !u! tag:unity3d.com,2011:
--- !u!114 &11400000
MonoBehaviour:
  m_ObjectHideFlags: 0
  m_CorrespondingSourceObject: {fileID: 0}
  m_PrefabInstance: {fileID: 0}
  m_PrefabAsset: {fileID: 0}
  m_GameObject: {fileID: 0}
  m_Enabled: 1
  m_EditorHideFlags: 0
  m_Script: {fileID: 11500000, guid: faf9bd25f2a89f24f8bf717e497cf428, type: 3}
  m_Name: E2_DodgeStateData
  m_EditorClassIdentifier: 
  dodgeSpeed: 10
  dodgeTime: 0.2
  dodgeCooldown: 2
  dodgeAngle: {x: 2, y: 1}
