%YAML 1.1
%TAG !u! tag:unity3d.com,2011:
--- !u!114 &11400000
MonoBehaviour:
  m_ObjectHideFlags: 0
  m_CorrespondingSourceObject: {fileID: 0}
  m_PrefabInstance: {fileID: 0}
  m_PrefabAsset: {fileID: 0}
  m_GameObject: {fileID: 0}
  m_Enabled: 1
  m_EditorHideFlags: 0
  m_Script: {fileID: 11500000, guid: 47cfd26f08ec20e458ae3ae4f7b20459, type: 3}
  m_Name: E2_EntityData
  m_EditorClassIdentifier: 
  maxHealth: 50
  recoverySpeed: 5
  damageHopSpeed: 10
  hitParticles: {fileID: 2157659140644861990, guid: 723713431b8d0f54b83984f9638cd8ad, type: 3}
  wallCheckDistance: 0.55
  ledgeCheckDistance: 0.8
  groundCheckRadius: 0.3
  minAgroDistance: 17
  maxAgroDistance: 20
  closeRangeActionDistance: 1.3
  stunResistance: 3
  stunRecoveryTime: 2
  groundMask:
    serializedVersion: 2
    m_Bits: 64
  playerMask:
    serializedVersion: 2
    m_Bits: 1024
