%YAML 1.1
%TAG !u! tag:unity3d.com,2011:
--- !u!114 &11400000
MonoBehaviour:
  m_ObjectHideFlags: 0
  m_CorrespondingSourceObject: {fileID: 0}
  m_PrefabInstance: {fileID: 0}
  m_PrefabAsset: {fileID: 0}
  m_GameObject: {fileID: 0}
  m_Enabled: 1
  m_EditorHideFlags: 0
  m_Script: {fileID: 11500000, guid: c3a40a8356ab1544db397565139cd959, type: 3}
  m_Name: E2_MeleeAttackStateData
  m_EditorClassIdentifier: 
  attackRadius: 0.8
  attackDamages: 10
  playerMask:
    serializedVersion: 2
    m_Bits: 1024
