[api-updater (non-obsolete-error-filter)] 06/12/2021 13:56:26 : Starting D:/Unity/Hub/Editor/2020.3.19f1/Editor/Data/Tools/ScriptUpdater/APIUpdater.NonObsoleteApiUpdaterDetector.exe
[api-updater (non-obsolete-error-filter)] 
----------------------------------
jit/startup time      : 8204,4252ms
moved types parse time: 59ms
candidates parse time : 1ms
C# parse time         : 2979ms
candidates check time : 102ms
console write time    : 41ms

[api-updater (non-obsolete-error-filter)] 09/12/2021 11:57:57 : Starting D:/Unity/Hub/Editor/2020.3.19f1/Editor/Data/Tools/ScriptUpdater/APIUpdater.NonObsoleteApiUpdaterDetector.exe
[api-updater (non-obsolete-error-filter)] 
----------------------------------
jit/startup time      : 1704,3081ms
moved types parse time: 108ms
candidates parse time : 1ms
C# parse time         : 771ms
candidates check time : 62ms
console write time    : 0ms

[api-updater (non-obsolete-error-filter)] 10/12/2021 15:58:57 : Starting D:/Unity/Hub/Editor/2020.3.19f1/Editor/Data/Tools/ScriptUpdater/APIUpdater.NonObsoleteApiUpdaterDetector.exe
[api-updater (non-obsolete-error-filter)] 
----------------------------------
jit/startup time      : 2232,0312ms
moved types parse time: 73ms
candidates parse time : 1ms
C# parse time         : 1533ms
candidates check time : 39ms
console write time    : 0ms

[api-updater (non-obsolete-error-filter)] 10/12/2021 16:04:27 : Starting D:/Unity/Hub/Editor/2020.3.19f1/Editor/Data/Tools/ScriptUpdater/APIUpdater.NonObsoleteApiUpdaterDetector.exe
[api-updater (non-obsolete-error-filter)] 
----------------------------------
jit/startup time      : 1486,0837ms
moved types parse time: 53ms
candidates parse time : 1ms
C# parse time         : 207ms
candidates check time : 33ms
console write time    : 0ms

[api-updater (non-obsolete-error-filter)] 11/12/2021 23:25:00 : Starting D:/Unity/Hub/Editor/2020.3.19f1/Editor/Data/Tools/ScriptUpdater/APIUpdater.NonObsoleteApiUpdaterDetector.exe
[api-updater (non-obsolete-error-filter)] 
----------------------------------
jit/startup time      : 2318,7974ms
moved types parse time: 70ms
candidates parse time : 1ms
C# parse time         : 1107ms
candidates check time : 28ms
console write time    : 0ms

[api-updater (non-obsolete-error-filter)] 13/12/2021 10:01:06 : Starting D:/Unity/Hub/Editor/2020.3.19f1/Editor/Data/Tools/ScriptUpdater/APIUpdater.NonObsoleteApiUpdaterDetector.exe
[api-updater (non-obsolete-error-filter)] 
----------------------------------
jit/startup time      : 1104,2751ms
moved types parse time: 92ms
candidates parse time : 1ms
C# parse time         : 3149ms
candidates check time : 182ms
console write time    : 26ms

[api-updater (non-obsolete-error-filter)] 13/12/2021 19:05:41 : Starting D:/Unity/Hub/Editor/2020.3.19f1/Editor/Data/Tools/ScriptUpdater/APIUpdater.NonObsoleteApiUpdaterDetector.exe
[api-updater (non-obsolete-error-filter)] 
----------------------------------
jit/startup time      : 1569,3219ms
moved types parse time: 50ms
candidates parse time : 1ms
C# parse time         : 524ms
candidates check time : 29ms
console write time    : 0ms

[api-updater (non-obsolete-error-filter)] 13/12/2021 19:06:18 : Starting D:/Unity/Hub/Editor/2020.3.19f1/Editor/Data/Tools/ScriptUpdater/APIUpdater.NonObsoleteApiUpdaterDetector.exe
[api-updater (non-obsolete-error-filter)] 
----------------------------------
jit/startup time      : 778,1044ms
moved types parse time: 56ms
candidates parse time : 12ms
C# parse time         : 222ms
candidates check time : 30ms
console write time    : 0ms

[api-updater (non-obsolete-error-filter)] 13/12/2021 19:47:47 : Starting D:/Unity/Hub/Editor/2020.3.19f1/Editor/Data/Tools/ScriptUpdater/APIUpdater.NonObsoleteApiUpdaterDetector.exe
[api-updater (non-obsolete-error-filter)] 
----------------------------------
jit/startup time      : 1041,2294ms
moved types parse time: 66ms
candidates parse time : 12ms
C# parse time         : 315ms
candidates check time : 28ms
console write time    : 0ms

[api-updater (non-obsolete-error-filter)] 13/12/2021 19:48:05 : Starting D:/Unity/Hub/Editor/2020.3.19f1/Editor/Data/Tools/ScriptUpdater/APIUpdater.NonObsoleteApiUpdaterDetector.exe
[api-updater (non-obsolete-error-filter)] 
----------------------------------
jit/startup time      : 144,0515ms
moved types parse time: 60ms
candidates parse time : 75ms
C# parse time         : 146ms
candidates check time : 38ms
console write time    : 0ms

[api-updater (non-obsolete-error-filter)] 14/12/2021 16:31:08 : Starting D:/Unity/Hub/Editor/2020.3.19f1/Editor/Data/Tools/ScriptUpdater/APIUpdater.NonObsoleteApiUpdaterDetector.exe
[api-updater (non-obsolete-error-filter)] 
----------------------------------
jit/startup time      : 8106,0715ms
moved types parse time: 157ms
candidates parse time : 1ms
C# parse time         : 3404ms
candidates check time : 31ms
console write time    : 25ms

[api-updater (non-obsolete-error-filter)] 14/12/2021 18:48:37 : Starting D:/Unity/Hub/Editor/2020.3.19f1/Editor/Data/Tools/ScriptUpdater/APIUpdater.NonObsoleteApiUpdaterDetector.exe
[api-updater (non-obsolete-error-filter)] 
----------------------------------
jit/startup time      : 1196,3146ms
moved types parse time: 95ms
candidates parse time : 14ms
C# parse time         : 433ms
candidates check time : 33ms
console write time    : 1ms

[api-updater (non-obsolete-error-filter)] 14/12/2021 18:51:58 : Starting D:/Unity/Hub/Editor/2020.3.19f1/Editor/Data/Tools/ScriptUpdater/APIUpdater.NonObsoleteApiUpdaterDetector.exe
[api-updater (non-obsolete-error-filter)] 
----------------------------------
jit/startup time      : 383,4797ms
moved types parse time: 57ms
candidates parse time : 11ms
C# parse time         : 184ms
candidates check time : 31ms
console write time    : 0ms

[api-updater (non-obsolete-error-filter)] 16/12/2021 14:00:21 : Starting D:/Unity/Hub/Editor/2020.3.19f1/Editor/Data/Tools/ScriptUpdater/APIUpdater.NonObsoleteApiUpdaterDetector.exe
[api-updater (non-obsolete-error-filter)] 
----------------------------------
jit/startup time      : 1542,1813ms
moved types parse time: 93ms
candidates parse time : 1ms
C# parse time         : 793ms
candidates check time : 29ms
console write time    : 1ms

[api-updater (non-obsolete-error-filter)] 21/12/2021 12:21:52 : Starting D:/Unity/Hub/Editor/2020.3.19f1/Editor/Data/Tools/ScriptUpdater/APIUpdater.NonObsoleteApiUpdaterDetector.exe
[api-updater (non-obsolete-error-filter)] 
----------------------------------
jit/startup time      : 1628,6678ms
moved types parse time: 59ms
candidates parse time : 1ms
C# parse time         : 782ms
candidates check time : 72ms
console write time    : 1ms

[api-updater (non-obsolete-error-filter)] 21/12/2021 12:23:11 : Starting D:/Unity/Hub/Editor/2020.3.19f1/Editor/Data/Tools/ScriptUpdater/APIUpdater.NonObsoleteApiUpdaterDetector.exe
[api-updater (non-obsolete-error-filter)] 
----------------------------------
jit/startup time      : 827,2782ms
moved types parse time: 56ms
candidates parse time : 12ms
C# parse time         : 235ms
candidates check time : 70ms
console write time    : 0ms

[api-updater (non-obsolete-error-filter)] 21/12/2021 12:25:08 : Starting D:/Unity/Hub/Editor/2020.3.19f1/Editor/Data/Tools/ScriptUpdater/APIUpdater.NonObsoleteApiUpdaterDetector.exe
[api-updater (non-obsolete-error-filter)] 
----------------------------------
jit/startup time      : 477,1996ms
moved types parse time: 65ms
candidates parse time : 12ms
C# parse time         : 240ms
candidates check time : 61ms
console write time    : 0ms

[api-updater (non-obsolete-error-filter)] 21/12/2021 12:32:19 : Starting D:/Unity/Hub/Editor/2020.3.19f1/Editor/Data/Tools/ScriptUpdater/APIUpdater.NonObsoleteApiUpdaterDetector.exe
[api-updater (non-obsolete-error-filter)] 
----------------------------------
jit/startup time      : 1336,3655ms
moved types parse time: 53ms
candidates parse time : 1ms
C# parse time         : 321ms
candidates check time : 48ms
console write time    : 0ms

[api-updater (non-obsolete-error-filter)] 21/12/2021 12:40:11 : Starting D:/Unity/Hub/Editor/2020.3.19f1/Editor/Data/Tools/ScriptUpdater/APIUpdater.NonObsoleteApiUpdaterDetector.exe
[api-updater (non-obsolete-error-filter)] 
----------------------------------
jit/startup time      : 977,2104ms
moved types parse time: 74ms
candidates parse time : 14ms
C# parse time         : 228ms
candidates check time : 44ms
console write time    : 0ms

[api-updater (non-obsolete-error-filter)] 21/12/2021 12:40:14 : Starting D:/Unity/Hub/Editor/2020.3.19f1/Editor/Data/Tools/ScriptUpdater/APIUpdater.NonObsoleteApiUpdaterDetector.exe
[api-updater (non-obsolete-error-filter)] 
----------------------------------
jit/startup time      : 690,9849ms
moved types parse time: 62ms
candidates parse time : 12ms
C# parse time         : 213ms
candidates check time : 48ms
console write time    : 0ms

[api-updater (non-obsolete-error-filter)] 21/12/2021 12:52:55 : Starting D:/Unity/Hub/Editor/2020.3.19f1/Editor/Data/Tools/ScriptUpdater/APIUpdater.NonObsoleteApiUpdaterDetector.exe
[api-updater (non-obsolete-error-filter)] 
----------------------------------
jit/startup time      : 633,2477ms
moved types parse time: 87ms
candidates parse time : 12ms
C# parse time         : 211ms
candidates check time : 45ms
console write time    : 0ms

[api-updater (non-obsolete-error-filter)] 21/12/2021 12:58:50 : Starting D:/Unity/Hub/Editor/2020.3.19f1/Editor/Data/Tools/ScriptUpdater/APIUpdater.NonObsoleteApiUpdaterDetector.exe
[api-updater (non-obsolete-error-filter)] 
----------------------------------
jit/startup time      : 455,955ms
moved types parse time: 56ms
candidates parse time : 12ms
C# parse time         : 206ms
candidates check time : 48ms
console write time    : 0ms

[api-updater (non-obsolete-error-filter)] 21/12/2021 12:59:28 : Starting D:/Unity/Hub/Editor/2020.3.19f1/Editor/Data/Tools/ScriptUpdater/APIUpdater.NonObsoleteApiUpdaterDetector.exe
[api-updater (non-obsolete-error-filter)] 
----------------------------------
jit/startup time      : 563,3495ms
moved types parse time: 63ms
candidates parse time : 12ms
C# parse time         : 244ms
candidates check time : 47ms
console write time    : 1ms

[api-updater (non-obsolete-error-filter)] 21/12/2021 16:16:05 : Starting D:/Unity/Hub/Editor/2020.3.19f1/Editor/Data/Tools/ScriptUpdater/APIUpdater.NonObsoleteApiUpdaterDetector.exe
[api-updater (non-obsolete-error-filter)] 
----------------------------------
jit/startup time      : 3685,4055ms
moved types parse time: 46ms
candidates parse time : 1ms
C# parse time         : 377ms
candidates check time : 67ms
console write time    : 0ms

[api-updater (non-obsolete-error-filter)] 21/12/2021 16:26:52 : Starting D:/Unity/Hub/Editor/2020.3.19f1/Editor/Data/Tools/ScriptUpdater/APIUpdater.NonObsoleteApiUpdaterDetector.exe
[api-updater (non-obsolete-error-filter)] 
----------------------------------
jit/startup time      : 1078,8991ms
moved types parse time: 52ms
candidates parse time : 10ms
C# parse time         : 204ms
candidates check time : 51ms
console write time    : 0ms

[api-updater (non-obsolete-error-filter)] 21/12/2021 16:28:27 : Starting D:/Unity/Hub/Editor/2020.3.19f1/Editor/Data/Tools/ScriptUpdater/APIUpdater.NonObsoleteApiUpdaterDetector.exe
[api-updater (non-obsolete-error-filter)] 
----------------------------------
jit/startup time      : 697,7923ms
moved types parse time: 53ms
candidates parse time : 10ms
C# parse time         : 202ms
candidates check time : 52ms
console write time    : 0ms

[api-updater (non-obsolete-error-filter)] 22/12/2021 09:54:29 : Starting D:/Unity/Hub/Editor/2020.3.19f1/Editor/Data/Tools/ScriptUpdater/APIUpdater.NonObsoleteApiUpdaterDetector.exe
[api-updater (non-obsolete-error-filter)] 
----------------------------------
jit/startup time      : 1598,6612ms
moved types parse time: 48ms
candidates parse time : 1ms
C# parse time         : 309ms
candidates check time : 70ms
console write time    : 0ms

[api-updater (non-obsolete-error-filter)] 22/12/2021 12:37:45 : Starting D:/Unity/Hub/Editor/2020.3.19f1/Editor/Data/Tools/ScriptUpdater/APIUpdater.NonObsoleteApiUpdaterDetector.exe
[api-updater (non-obsolete-error-filter)] 
----------------------------------
jit/startup time      : 1531,9884ms
moved types parse time: 99ms
candidates parse time : 1ms
C# parse time         : 196ms
candidates check time : 93ms
console write time    : 0ms

