%YAML 1.1
%TAG !u! tag:unity3d.com,2011:
--- !u!74 &7400000
AnimationClip:
  m_ObjectHideFlags: 0
  m_CorrespondingSourceObject: {fileID: 0}
  m_PrefabInstance: {fileID: 0}
  m_PrefabAsset: {fileID: 0}
  m_Name: Base_WeaponSword_2
  serializedVersion: 6
  m_Legacy: 0
  m_Compressed: 0
  m_UseHighQualityCurve: 1
  m_RotationCurves: []
  m_CompressedRotationCurves: []
  m_EulerCurves: []
  m_PositionCurves: []
  m_ScaleCurves: []
  m_FloatCurves: []
  m_PPtrCurves:
  - curve:
    - time: 0
      value: {fileID: 9044786021765537137, guid: 067cb68cc2cc95642adfa2ed4fbeeaf7, type: 3}
    - time: 0.13333334
      value: {fileID: 3647156553916755266, guid: 067cb68cc2cc95642adfa2ed4fbeeaf7, type: 3}
    - time: 0.2
      value: {fileID: -7025760825990288548, guid: 067cb68cc2cc95642adfa2ed4fbeeaf7, type: 3}
    - time: 0.33333334
      value: {fileID: 1008453939145656331, guid: 067cb68cc2cc95642adfa2ed4fbeeaf7, type: 3}
    - time: 0.4
      value: {fileID: 1121910671679707029, guid: 067cb68cc2cc95642adfa2ed4fbeeaf7, type: 3}
    attribute: m_Sprite
    path: 
    classID: 212
    script: {fileID: 0}
  m_SampleRate: 15
  m_WrapMode: 0
  m_Bounds:
    m_Center: {x: 0, y: 0, z: 0}
    m_Extent: {x: 0, y: 0, z: 0}
  m_ClipBindingConstant:
    genericBindings:
    - serializedVersion: 2
      path: 0
      attribute: 0
      script: {fileID: 0}
      typeID: 212
      customType: 23
      isPPtrCurve: 1
    pptrCurveMapping:
    - {fileID: 9044786021765537137, guid: 067cb68cc2cc95642adfa2ed4fbeeaf7, type: 3}
    - {fileID: 3647156553916755266, guid: 067cb68cc2cc95642adfa2ed4fbeeaf7, type: 3}
    - {fileID: -7025760825990288548, guid: 067cb68cc2cc95642adfa2ed4fbeeaf7, type: 3}
    - {fileID: 1008453939145656331, guid: 067cb68cc2cc95642adfa2ed4fbeeaf7, type: 3}
    - {fileID: 1121910671679707029, guid: 067cb68cc2cc95642adfa2ed4fbeeaf7, type: 3}
  m_AnimationClipSettings:
    serializedVersion: 2
    m_AdditiveReferencePoseClip: {fileID: 0}
    m_AdditiveReferencePoseTime: 0
    m_StartTime: 0
    m_StopTime: 0.46666667
    m_OrientationOffsetY: 0
    m_Level: 0
    m_CycleOffset: 0
    m_HasAdditiveReferencePose: 0
    m_LoopTime: 0
    m_LoopBlend: 0
    m_LoopBlendOrientation: 0
    m_LoopBlendPositionY: 0
    m_LoopBlendPositionXZ: 0
    m_KeepOriginalOrientation: 0
    m_KeepOriginalPositionY: 1
    m_KeepOriginalPositionXZ: 0
    m_HeightFromFeet: 0
    m_Mirror: 0
  m_EditorCurves: []
  m_EulerEditorCurves: []
  m_HasGenericRootTransform: 0
  m_HasMotionFloatCurves: 0
  m_Events:
  - time: 0.13333334
    functionName: AnimationTurnOffFlipTrigger
    data: 
    objectReferenceParameter: {fileID: 0}
    floatParameter: 0
    intParameter: 0
    messageOptions: 0
  - time: 0.13333334
    functionName: AnimationStartMovementTrigger
    data: 
    objectReferenceParameter: {fileID: 0}
    floatParameter: 0
    intParameter: 0
    messageOptions: 0
  - time: 0.13333334
    functionName: AnimationActionTrigger
    data: 
    objectReferenceParameter: {fileID: 0}
    floatParameter: 0
    intParameter: 0
    messageOptions: 0
  - time: 0.33333334
    functionName: AnimationStopMovementTrigger
    data: 
    objectReferenceParameter: {fileID: 0}
    floatParameter: 0
    intParameter: 0
    messageOptions: 0
  - time: 0.4
    functionName: AnimationTurnOnFlipTrigger
    data: 
    objectReferenceParameter: {fileID: 0}
    floatParameter: 0
    intParameter: 0
    messageOptions: 0
  - time: 0.46666667
    functionName: AnimationFinishTrigger
    data: 
    objectReferenceParameter: {fileID: 0}
    floatParameter: 0
    intParameter: 0
    messageOptions: 0
