%YAML 1.1
%TAG !u! tag:unity3d.com,2011:
--- !u!114 &11400000
MonoBehaviour:
  m_ObjectHideFlags: 0
  m_CorrespondingSourceObject: {fileID: 0}
  m_PrefabInstance: {fileID: 0}
  m_PrefabAsset: {fileID: 0}
  m_GameObject: {fileID: 0}
  m_Enabled: 1
  m_EditorHideFlags: 0
  m_Script: {fileID: 11500000, guid: f8059aebf6ae6e949bd78329adf2f346, type: 3}
  m_Name: PlayerData
  m_EditorClassIdentifier: 
  movementVelocity: 10
  crouchMovementVelocity: 5
  crouchColliderHeight: 0.7
  crouchColliderWidth: 0.9
  standColliderHeight: 1.6
  standColliderWidth: 0.6
  jumpVelocity: 20
  amountOfJumps: 2
  coyoteTime: 0.2
  jumpHeightMultiplier: 0.5
  wallSlideVelocity: 1.98
  wallJumpVelocity: 20
  wallJumpTime: 0.4
  wallJumpAngle: {x: 1, y: 1.5}
  wallClimbVelocity: 3
  startOffset: {x: 0.3, y: 1}
  stopOffset: {x: 0.4, y: 0.75}
  maxHoldTime: 1
  holdTimeScale: 0.25
  dashVelocity: 70
  dashTime: 0.1
  dashCooldown: 0
  drag: 10
  dashEndYMultiplier: 0.2
  distanceBetweenAfterImages: 2.02
  rollVelocity: 10
  rollCooldown: 0.5
  rollTime: 0.5
  rollColliderHeight: 0.9
  rollColliderWidth: 0.9
  groundPoundVelocity: 70
  groundPoundDamages: 100
